name	manifest_id	manifest_name	activity	Manikin type	Language	Market	Guideline	Schedule	Note	Fill
Algemeen+Ziekenhuis+Alma	manifest/rqi_ema_adult_cpr_standalone_nl	CPR volwassene curriculum	cpr	adult	nl	Belgium	ERC	standalone		
Algemeen+Ziekenhuis+Alma	manifest/rqi_ema_infant_cpr_15_2_standalone_nl	CPR 15:2 baby curriculum	cpr 15 2	infant	nl	Belgium	ERC	standalone		
ASZ+Aalst	manifest/rqi_ema_adult_cpr_aed_standalone_nl	CPR/AED volwassene curriculum	cpr aed	adult	nl	Belgium	ERC	standalone		
ASZ+Aalst	manifest/rqi_ema_infant_cpr_15_2_standalone_nl	CPR 15:2 baby curriculum	cpr 15 2	infant	nl	Belgium	ERC	standalone		
AZ+Glorieux+Ronse	manifest/rqi_ema_adult_infant_cpr_15_2_standalone_nl	CPR volwassene - CPR 15:2 baby curriculum	cpr 15 2	adult/infant	nl	Belgium	ERC	standalone		
AZ+Glorieux+Ronse	manifest/rqi_ema_adult_cpr_standalone_nl	CPR volwassene curriculum	cpr	adult	nl	Belgium	ERC	standalone		
AZ+Groeninge	manifest/rqi_ema_adult_cpr_aed_standalone_nl	CPR/AED volwassene curriculum	cpr aed	adult	nl	Belgium	ERC	standalone		
AZ+Groeninge	manifest/rqi_ema_adult_infant_cpr_15_2_standalone_nl	CPR volwassene - CPR 15:2 baby curriculum	cpr 15 2	adult/infant	nl	Belgium	ERC	standalone		
AZ+Groeninge	manifest/rqi_ema_adult_cpr_standalone_nl	CPR volwassene curriculum	cpr	adult	nl	Belgium	ERC	standalone		
AZ+Klina	manifest/rqi_ema_adult_infant_cpr_15_2_standalone_nl	CPR volwassene - CPR 15:2 baby curriculum	cpr 15 2	adult/infant	nl	Belgium	ERC	standalone		
AZ+Klina	manifest/rqi_ema_adult_cpr_standalone_nl	CPR volwassene curriculum	cpr	adult	nl	Belgium	ERC	standalone		
AZ+Nikolaas	manifest/rqi_ema_adult_cpr_standalone_nl	CPR volwassene curriculum	cpr	adult	nl	Belgium	ERC	standalone		
AZ+Nikolaas	manifest/rqi_ema_adult_infant_cpr_15_2_standalone_nl	CPR volwassene - CPR 15:2 baby curriculum	cpr 15 2	adult/infant	nl	Belgium	ERC	standalone		
AZ+Sint-Blasius+Dendermonde	manifest/rqi_ema_infant_cpr_15_2_standalone_nl	CPR 15:2 baby curriculum	cpr 15 2	infant	nl	Belgium	ERC	standalone		
AZ+Sint-Blasius+Dendermonde	manifest/rqi_ema_adult_cpr_standalone_nl	CPR volwassene curriculum	cpr	adult	nl	Belgium	ERC	standalone		
Centre+Hospitalier+de+Mouscron	manifest/rqi_ema_adult_cpr_standalone_fr	RCP Adulte	cpr	adult	fr	Belgium	ERC	standalone		
Centre+Hospitalier+de+Mouscron	manifest/rqi_ema_infant_cpr_15_2_standalone_fr	RCP Bébé 15:2	cpr 15 2	infant	fr	Belgium	ERC	standalone		
Centre+Hospitalier+de+Mouscron	manifest/rqi_ema_adult_cpr_aed_standalone_fr	RCP/DAE Adulte	cpr aed	adult	fr	Belgium	ERC	standalone		
Centre+Hospitalier+de+Mouscron	manifest/rqi_ema_adult_aed_infant_cpr_15_2_moc_fr	RCP/DAE Adulte - RCP Bébé 15:2	cpr aed	adult/infant	fr	Belgium	ERC	moc		
CHR+Sambre+Meuse	manifest/rqi_ema_adult_cpr_standalone_fr	RCP Adulte	cpr	adult	fr	Belgium	ERC	standalone		
CHR+Sambre+Meuse	manifest/rqi_ema_infant_cpr_15_2_standalone_fr	RCP Bébé 15:2	cpr 15 2	infant	fr	Belgium	ERC	standalone		
GZA+Antwerpen	manifest/rqi_ema_adult_cpr_standalone_nl	CPR volwassene curriculum	cpr	adult	nl	Belgium	ERC	standalone		
GZA+Antwerpen	manifest/rqi_ema_adult_infant_cpr_15_2_standalone_nl	CPR volwassene - CPR 15:2 baby curriculum	cpr 15 2	adult/infant	nl	Belgium	ERC	standalone		
Heilig+Hartziekenhuis+Mol	manifest/rqi_ema_adult_infant_cpr_15_2_standalone_nl	CPR volwassene - CPR 15:2 baby curriculum	cpr 15 2	adult/infant	nl	Belgium	ERC	standalone		
Heilig+Hartziekenhuis+Mol	manifest/rqi_ema_adult_cpr_standalone_nl	CPR volwassene curriculum	cpr	adult	nl	Belgium	ERC	standalone		
Imelda+Ziekenhuis+Bonheiden	manifest/rqi_ema_adult_cpr_standalone_nl	CPR volwassene curriculum	cpr	adult	nl	Belgium	ERC	standalone		
Imelda+Ziekenhuis+Bonheiden	manifest/rqi_ema_adult_cpr_aed_standalone_nl	CPR/AED volwassene curriculum	cpr aed	adult	nl	Belgium	ERC	standalone		
Jan+Yperman+Ziekenhuis+Ieper	manifest/rqi_ema_adult_cpr_aed_standalone_nl	CPR/AED volwassene curriculum	cpr aed	adult	nl	Belgium	ERC	standalone		
Jan+Yperman+Ziekenhuis+Ieper	manifest/rqi_ema_adult_infant_cpr_15_2_standalone_nl	CPR volwassene - CPR 15:2 baby curriculum	cpr 15 2	adult/infant	nl	Belgium	ERC	standalone		
Jan+Yperman+Ziekenhuis+Ieper	manifest/rqi_ema_adult_cpr_standalone_nl	CPR volwassene curriculum	cpr	adult	nl	Belgium	ERC	standalone		
Mariaziekenhuis+vzw	manifest/rqi_ema_adult_cpr_standalone_nl	CPR volwassene curriculum	cpr	adult	nl	Belgium	ERC	standalone		
Mariaziekenhuis+vzw	manifest/rqi_ema_adult_infant_cpr_15_2_standalone_nl	CPR volwassene - CPR 15:2 baby curriculum	cpr 15 2	adult/infant	nl	Belgium	ERC	standalone		
OLV+van+Lourdes+Ziekenhuis+Waregem	manifest/rqi_ema_adult_cpr_standalone_nl	CPR volwassene curriculum	cpr	adult	nl	Belgium	ERC	standalone		
OLV+van+Lourdes+Ziekenhuis+Waregem	manifest/rqi_ema_adult_infant_cpr_15_2_standalone_nl	CPR volwassene - CPR 15:2 baby curriculum	cpr 15 2	adult/infant	nl	Belgium	ERC	standalone		
PCRUBrussels+%28Pfizer%29	manifest/rqi_ema_adult_cpr_standalone_fr	RCP Adulte	cpr	adult	fr	Belgium	ERC	standalone		
PCRUBrussels+%28Pfizer%29	manifest/rqi_ema_adult_cpr_aed_standalone_fr	RCP/DAE Adulte	cpr aed	adult	fr	Belgium	ERC	standalone		
RZTienen	manifest/rqi_ema_adult_infant_cpr_15_2_standalone_nl	CPR volwassene - CPR 15:2 baby curriculum	cpr 15 2	adult/infant	nl	Belgium	ERC	standalone		
RZTienen	manifest/rqi_ema_adult_cpr_standalone_nl	CPR volwassene curriculum	cpr	adult	nl	Belgium	ERC	standalone		
Sint+Andries+Ziekenhuis+Tielt	manifest/rqi_ema_adult_cpr_standalone_nl	CPR volwassene curriculum	cpr	adult	nl	Belgium	ERC	standalone		
Sint+Andries+Ziekenhuis+Tielt	manifest/rqi_ema_adult_infant_cpr_15_2_standalone_nl	CPR volwassene - CPR 15:2 baby curriculum	cpr 15 2	adult/infant	nl	Belgium	ERC	standalone		
Universitair+Ziekenhuis+Antwerpen	manifest/ema_adult_compressions_only_standalone_nl	Borstcompressies Volwassene curriculum	comp only	adult	nl	Belgium	ERC	standalone		
Universitair+Ziekenhuis+Antwerpen	manifest/rqi_ema_adult_cpr_standalone_nl	CPR volwassene curriculum	cpr	adult	nl	Belgium	ERC	standalone		
Universitair+Ziekenhuis+Antwerpen	manifest/rqi_ema_infant_cpr_15_2_standalone_nl	CPR 15:2 baby curriculum	cpr 15 2	infant	nl	Belgium	ERC	standalone		
Ziekenhuis+Geel	manifest/rqi_ema_adult_cpr_standalone_nl	CPR volwassene curriculum	cpr	adult	nl	Belgium	ERC	standalone		
Ziekenhuis+Geel	manifest/rqi_ema_adult_infant_cpr_15_2_standalone_nl	CPR volwassene - CPR 15:2 baby curriculum	cpr 15 2	adult/infant	nl	Belgium	ERC	standalone		
Ziekenhuis+Maas+en+Kempen	manifest/rqi_ema_adult_cpr_standalone_nl	CPR volwassene curriculum	cpr	adult	nl	Belgium	ERC	standalone		
Ziekenhuis+Maas+en+Kempen	manifest/rqi_ema_adult_cpr_aed_standalone_nl	CPR/AED volwassene curriculum	cpr aed	adult	nl	Belgium	ERC	standalone		
Ziekenhuis+Maas+en+Kempen	manifest/rqi_ema_adult_infant_cpr_15_2_standalone_nl	CPR volwassene - CPR 15:2 baby curriculum	cpr 15 2	adult/infant	nl	Belgium	ERC	standalone		
ZNA+Antwerpen	manifest/rqi_ema_adult_cpr_standalone_nl	CPR volwassene curriculum	cpr	adult	nl	Belgium	ERC	standalone		
ZNA+Antwerpen	manifest/rqi_ema_infant_cpr_15_2_standalone_nl	CPR 15:2 baby curriculum	cpr 15 2	infant	nl	Belgium	ERC	standalone		
Gladsaxe+Kommune	manifest/rqi_ema_adult_cpr_aed_moc_da	Voksen HLR m/AED	cpr aed	adult	da	Denmark	ERC	moc		
Gladsaxe+Kommune	manifest/rqi_ema_adult_cpr_standalone_da	Voksen HLR	cpr	adult	da	Denmark	ERC	standalone		
Gladsaxe+Kommune	manifest/rqi_ema_adult_cpr_moc_da	Voksen HLR	cpr	adult	da	Denmark	ERC	moc		
K%C3%B8benhavns+proffessionsh%C3%B8jskole	manifest/rqi_ema_adult_cpr_standalone_da	Voksen HLR	cpr	adult	da	Denmark	ERC	standalone		
AKK+Hamburg	manifest/rqi_ema_adult_infant_cpr_30_2_standalone_de	CPR Erwachsener - CPR Säugling 30:2	cpr 30 2	adult/infant	de	Germany	ERC	standalone		
AKK+Hamburg	manifest/rqi_ema_adult_infant_cpr_30_2_moc_de	CPR Erwachsener - CPR Säugling 30:2	cpr 30 2	adult/infant	de	Germany	ERC	moc		
AKK+Hamburg	manifest/rqi_ema_adult_infant_cpr_15_2_standalone_de	CPR Erwachsener - CPR Säugling 15:2	cpr 15 2	adult/infant	de	Germany	ERC	standalone		
AKK+Hamburg	manifest/rqi_ema_adult_infant_cpr_15_2_moc_de	CPR Erwachsener - CPR Säugling 15:2	cpr 15 2	adult/infant	de	Germany	ERC	moc		
Berliner+Feuerwehr	manifest/bfb_rqi_adult_infant_curriculum_de	CPR Erwachsener - CPR Säugling	unknown	adult/infant	de	Germany	AHA	moc(hacked)		
Berliner+Feuerwehr	manifest/rqi_ema_adult_cpr_aed_standalone_de	CPR mit AED Erwachsener	cpr aed	adult	de	Germany	ERC	standalone		
Donau+Isar+Klinikum	manifest/rqi_ema_adult_cpr_moc_de	CPR Erwachsener	cpr	adult	de	Germany	ERC	moc		
Donau+Isar+Klinikum	manifest/rqi_ema_adult_infant_cpr_30_2_standalone_de	CPR Erwachsener - CPR Säugling 30:2	cpr 30 2	adult/infant	de	Germany	ERC	standalone		
Fire+Brigade+Castrop+Rauxel	manifest/rqi_ema_adult_infant_cpr_30_2_moc_de	CPR Erwachsener - CPR Säugling 30:2	cpr 30 2	adult/infant	de	Germany	ERC	moc		
Fire+Brigade+Castrop+Rauxel	manifest/rqi_ema_adult_cpr_moc_de	CPR Erwachsener	cpr	adult	de	Germany	ERC	moc		
Fw+Castrop-Rauxel	manifest/rqi_ema_adult_cpr_aed_moc_de	CPR mit AED Erwachsener	cpr aed	adult	de	Germany	ERC	moc		
Fw+Castrop-Rauxel	manifest/rqi_ema_infant_cpr_15_2_moc_de	CPR Säugling 15:2	cpr 15 2	infant	de	Germany	ERC	moc		
Fw+Castrop-Rauxel	manifest/rqi_ema_adult_infant_cpr_30_2_moc_de	CPR Erwachsener - CPR Säugling 30:2	cpr 30 2	adult/infant	de	Germany	ERC	moc		
Hoch+Sauerland+Kreis	manifest/rqi_ema_adult_cpr_standalone_de	CPR Erwachsener	cpr	adult	de	Germany	ERC	standalone		
Hoch+Sauerland+Kreis	manifest/rqi_ema_adult_infant_cpr_15_2_standalone_de	CPR Erwachsener - CPR Säugling 15:2	cpr 15 2	adult/infant	de	Germany	ERC	standalone		
Hoch+Sauerland+Kreis	manifest/rqi_ema_adult_infant_cpr_15_2_moc_de	CPR Erwachsener - CPR Säugling 15:2	cpr 15 2	adult/infant	de	Germany	ERC	moc		
Hoch+Sauerland+Kreis	manifest/rqi_ema_adult_infant_cpr_30_2_standalone_de	CPR Erwachsener - CPR Säugling 30:2	cpr 30 2	adult/infant	de	Germany	ERC	standalone		
Kreis+Coesfeld	manifest/rqi_ema_adult_infant_cpr_15_2_moc_de	CPR Erwachsener - CPR Säugling 15:2	cpr 15 2	adult/infant	de	Germany	ERC	moc		
Kreis+Coesfeld	manifest/rqi_ema_adult_cpr_standalone_de	CPR Erwachsener	cpr	adult	de	Germany	ERC	standalone		
UKA+Pilot	manifest/rqi_ema_adult_infant_cpr_30_2_standalone_de	CPR Erwachsener - CPR Säugling 30:2	cpr 30 2	adult/infant	de	Germany	ERC	standalone		
UKA+Pilot	manifest/rqi_ema_adult_infant_cpr_30_2_moc_de	CPR Erwachsener - CPR Säugling 30:2	cpr 30 2	adult/infant	de	Germany	ERC	moc		
UKA+Pilot	manifest/rqi_ema_adult_infant_cpr_15_2_moc_de	CPR Erwachsener - CPR Säugling 15:2	cpr 15 2	adult/infant	de	Germany	ERC	moc		
UKA+Pilot	manifest/rqi_ema_adult_infant_cpr_15_2_standalone_de	CPR Erwachsener - CPR Säugling 15:2	cpr 15 2	adult/infant	de	Germany	ERC	standalone		
UKA+Pilot	manifest/rqi_ema_adult_cpr_standalone_de	CPR Erwachsener	cpr	adult	de	Germany	ERC	standalone		
UKA+Pilot	manifest/rqi_ema_adult_cpr_moc_de	CPR Erwachsener	cpr	adult	de	Germany	ERC	moc		
Centre+Hospitalier+de+Luxembourg	manifest/rqi_ema_adult_cpr_standalone_fr	RCP Adulte	cpr	adult	fr	Luxemburg	ERC	standalone		
Centre+Hospitalier+de+Luxembourg	manifest/rqi_ema_adult_infant_cpr_15_2_standalone_fr	RCP Adulte - RCP Bébé 15:2	cpr 15 2	adult/infant	fr	Luxemburg	ERC	standalone		
AZ+Turnhout	manifest/rqi_ema_adult_infant_cpr_15_2_standalone_nl	CPR volwassene - CPR 15:2 baby curriculum	cpr 15 2	adult/infant	nl	Netherlands	ERC	standalone		
AZ+Turnhout	manifest/rqi_ema_adult_cpr_standalone_nl	CPR volwassene curriculum	cpr	adult	nl	Netherlands	ERC	standalone		
M%C3%A1xima+MC+Veldhoven	manifest/rqi_ema_adult_cpr_standalone_nl	CPR volwassene curriculum	cpr	adult	nl	Netherlands	ERC	standalone		
M%C3%A1xima+MC+Veldhoven	manifest/rqi_ema_adult_infant_cpr_15_2_standalone_nl	CPR volwassene - CPR 15:2 baby curriculum	cpr 15 2	adult/infant	nl	Netherlands	ERC	standalone		
Hogskolen+pa+Vestlandet+Haugesund	manifest/rqi_ema_adult_cpr_standalone_no	Voksen HLR	cpr	adult	no	Norway	ERC	standalone		
Hogskolen+pa+Vestlandet+Haugesund	manifest/rqi_ema_adult_cpr_standalone_no	Voksen HLR	cpr	adult	no	Norway	ERC	standalone		
NTNU	manifest/rqi_ema_infant_cpr_15_2_standalone_no	Barn HLR 15:2	cpr 15 2	infant	no	Norway	ERC	standalone		
NTNU	manifest/rqi_ema_adult_cpr_standalone_no	Voksen HLR	cpr	adult	no	Norway	ERC	standalone		
NTNU	manifest/rqi_ema_adult_cpr_aed_standalone_no	Voksen HLR m/AED	cpr aed	adult	no	Norway	ERC	standalone		
Universitetet+i+Agder	manifest/rqi_ema_adult_cpr_aed_standalone_no	Voksen HLR m/AED	cpr aed	adult	no	Norway	ERC	standalone		
AISAB	manifest/rqi_moc_adultped_hlr_sv	RQI MOC HLR Vuxen/Barn	unknown	adultped	sv	Sweden	ERC	moc		
Helsingborgs+Lasarett	manifest/rqi_ema_adult_1_rescuer_cpr_standalone_no	Voksen HLR	rescuer	adult	no	Sweden	ERC	standalone		
Helsingborgs+Lasarett	manifest/rqi_moc_adult_hlr_sv	RQI MOC HLR Vuxen	unknown	adult	sv	Sweden	ERC	moc		
Helsingborgs+Lasarett	manifest/rqi_moc_adultped_hlr_sv	RQI MOC HLR Vuxen/Barn	unknown	adultped	sv	Sweden	ERC	moc		
Karlskoga+Lasarett	manifest/rqi_moc_adultped_hlr_sv	RQI MOC HLR Vuxen/Barn	unknown	adultped	sv	Sweden	ERC	moc		
Karlskoga+Lasarett	manifest/rqi_ema_adult_cpr_standalone_da	Voksen HLR	cpr	adult	da	Sweden	ERC	standalone		
Karlskoga+Lasarett	manifest/rqi_moc_adult_hlr_sv	RQI MOC HLR Vuxen	unknown	adult	sv	Sweden	ERC	moc		
Spire Healthcare Cheshire	manifest/rqi_bhf_adult_aed_infant_cpr_moc_spire	BHF Adult with AED and Infant ver.Spire	unknown	adult/infant	en	UK	ERC	moc		
Spire Healthcare Cheshire	manifest/rqi_bhf_adult_cpr_aed_moc_spire	BHF Adult with AED ver.Spire	cpr aed	adult	en	UK	ERC	moc		
Spire Healthcare Cheshire	manifest/rqi_bhf_infant_cpr_moc_spire	BHF Infant ver.Spire	cpr	infant	en	UK	ERC	moc		
St+Helens+Knowsley+Teaching+hospitals+NHS+Trust	manifest/rqi_bhf_adult_aed_infant_cpr_baseline_moc	BHF MOC In-Hospital – Adult&Ped with AED Trainer - Baseline Q1	baseline	adult/infant	en	UK	ERC	moc		
St+Helens+Knowsley+Teaching+hospitals+NHS+Trust	manifest/rqi_bhf_adult_aed_infant_cpr_moc	BHF MOC In-Hospital – Adult&Ped with AED Trainer	unknown	adult/infant	en	UK	ERC	moc		
Taunton+and+somerset+NHS+Foundation+Trust	manifest/rqi_bhf_adult_cpr_aed_moc	BHF MOC In-Hospital – Adult with AED trainer	cpr aed	adult	en	UK	ERC	moc		
Taunton+and+somerset+NHS+Foundation+Trust	manifest/rqi_bhf_infant_cpr_moc	BHF MOC In-Hospital – Pediatric	cpr	infant	en	UK	ERC	moc		
Taunton+and+somerset+NHS+Foundation+Trust	manifest/rqi_bhf_adult_cpr_aed_baseline_moc	BHF MOC In-Hospital – Adult with AED trainer - Baseline Q1	baseline	adult	en	UK	ERC	moc		
The London Clinic	manifest/rqi_bhf_adult_aed_infant_cpr_baseline_moc	BHF MOC In-Hospital – Adult&Ped with AED Trainer - Baseline Q1	baseline	adult/infant	en	UK	ERC	moc		
The London Clinic	manifest/rqi_bhf_adult_aed_infant_cpr_moc	BHF MOC In-Hospital – Adult&Ped with AED Trainer	unknown	adult/infant	en	UK	ERC	moc		
Trauma+Resuscitation+Services	manifest/rqi_bhf_adult_cpr_moc	BHF MOC In-Hospital – Adult	cpr	adult	en	UK	ERC	moc		
Trauma+Resuscitation+Services	manifest/rqi_bhf_adult_cpr_aed_moc	BHF MOC In-Hospital – Adult with AED trainer	cpr aed	adult	en	UK	ERC	moc		
University+Hospitals+Bristol+NHS+Foundation+Trust	manifest/rqi_bhf_adult_infant_bristol_moc	BHF MOC RQI BLS vers.b	unknown	adult/infant	en	UK	ERC	moc		
University+of+Sunderland	manifest/rqi_bhf_adult_infant_cpr_baseline_moc	BHF MOC In-Hospital – Adult&Ped - Baseline Q1	baseline	adult/infant	en	UK	ERC	moc		
University+of+Sunderland	manifest/rqi_bhf_adult_aed_infant_cpr_baseline_sunderland_moc	BHF MOC RQI BLS vers.b	baseline	adult/infant	en	UK	ERC	moc		
Darwin	ARC - Basic Life Support (Infant) Standalone	ARC RQI Skills Infant Compressions	Comp	Infant	en	AUS	ARC	standalone	12 months	
Darwin	ARC - Basic Life Support (Infant) Standalone	ARC RQI Skills Infant Ventilations	Vent	Infant	en	AUS	ARC	standalone	12 months	
West moreton	2020(2nd) - ARC - Basic Life Support + AED (Adult/Child + Infant) Standalone	ARC RQI Skills Adult/Child Compressions	Comp	Adult/child	en	AUS	ARC	standalone	6 months	
West moreton	2020(2nd) - ARC - Basic Life Support + AED (Adult/Child + Infant) Standalone	ARC RQI Skills Adult/Child Ventilation	Vent	Adult/child	en	AUS	ARC	standalone	6 months	
West moreton	2020(2nd) - ARC - Basic Life Support + AED (Adult/Child + Infant) Standalone	ARC RQI Skills Adult AED 30 Compressions	AED Comp	Adult	en	AUS	ARC	standalone	6 months	
West moreton	2020(2nd) - ARC - Basic Life Support + AED (Adult/Child + Infant) Standalone	ARC RQI Skills Infant Compressions	Comp	Infant	en	AUS	ARC	standalone	6 months	
West moreton	2020(2nd) - ARC - Basic Life Support + AED (Adult/Child + Infant) Standalone	ARC RQI Skills Infant Ventilations	Vent	Infant	en	AUS	ARC	standalone	6 months	
Roma	ARC - Adult/Child Compressions Only (2 minutes) Standalone	ARC - Adult/Child Compressions Only (2 minutes) Standalone	Comp 2 min	Adult/child	en	AUS	ARC	standalone	3 months	
Roma	Basic Life Support + quarterly AED (Adult/Child (2 mins) + Infant)	ARC RQI Skills Adult/Child Compressions 2 min	Comp 2 min	Adult/child	en	AUS	ARC	moc	3 months	
Roma	Basic Life Support + quarterly AED (Adult/Child (2 mins) + Infant)	ARC RQI Skills Adult/Child Ventilation	Vent	Adult/child	en	AUS	ARC	moc	3 months	
Roma	Basic Life Support + quarterly AED (Adult/Child (2 mins) + Infant)	ARC RQI Skills Adult AED 30 Compressions	AED Comp	Adult	en	AUS	ARC	moc	3 months	
Roma	Basic Life Support + quarterly AED (Adult/Child (2 mins) + Infant)	ARC RQI Skills Infant Compressions	Comp	Infant	en	AUS	ARC	moc	3 months	
Roma	Basic Life Support + quarterly AED (Adult/Child (2 mins) + Infant)	ARC RQI Skills Infant Ventilations	Vent	Infant	en	AUS	ARC	moc	3 months	
QHC	ARC - Basic Life Support (Adult/Child + Infant) Standalone	ARC RQI Skills Adult/Child Compressions	Comp	Adult/child	en	AUS	ARC	standalone	Q1	
QHC	ARC - Basic Life Support (Adult/Child + Infant) Standalone	ARC RQI Skills Adult/Child Ventilation	Vent	Adult/child	en	AUS	ARC	standalone	Q1	
QHC	ARC - Basic Life Support (Adult/Child + Infant) Standalone	ARC RQI Skills Infant Compressions	Comp	Infant	en	AUS	ARC	standalone	Q1	
QHC	ARC - Basic Life Support (Adult/Child + Infant) Standalone	ARC RQI Skills Infant Ventilations	Vent	Infant	en	AUS	ARC	standalone	Q1	
QHC	ARC - Single Rescuer CPR (Adult/Child + Infant) Standalone	ARC BLS Adult/Child CPR	CPR	Adult/child	en	AUS	ARC	standalone	Q2-Q4	
QHC	ARC - Single Rescuer CPR (Adult/Child + Infant) Standalone	ARC RQI Skills Infant CPR 2:15	CPR 15 2	Infant	en	AUS	ARC	standalone	Q2-Q4	
Gold coast	LTI	ARC RQI Skills Adult AED 30 Compressions	AED Comp	Adult	en	AUS	ARC	moc	Annually	
Gold coast	LTI	ARC RQI Skills Adult/Child Compressions	Comp	Adult/child	en	AUS	ARC	moc	3monthly	
Gold coast	LTI	ARC RQI Skills Adult/Child Ventilation	Vent	Adult/child	en	AUS	ARC	moc	3monthly	
Gold coast	LTI	ARC RQI Skills Infant Compressions	Comp	Infant	en	AUS	ARC	moc	3monthly	
Gold coast	LTI	ARC RQI Skills Infant Ventilations	Vent	Infant	en	AUS	ARC	moc	3monthly	
Gold coast	LTI	ARC RQI Skills Newborn Compressions	Comp	Newborn	en	AUS	ARC	moc	3monthly	
Gold coast	LTI	ARC RQI Skills Newborn Ventilations	Vent	Newborn	en	AUS	ARC	moc	3monthly	
John Hunter	ARC - Basic Life Support (Adult/Child and Newborn) Standalone	ARC RQI Skills Adult/Child Compressions	Comp	Adult/child	en	AUS	ARC	standalone		
John Hunter	ARC - Basic Life Support (Adult/Child and Newborn) Standalone	ARC RQI Skills Adult/Child Ventilation	Vent	Adult/child	en	AUS	ARC	standalone		
John Hunter	ARC - Basic Life Support (Adult/Child and Newborn) Standalone	ARC RQI Skills Newborn Compressions	Comp	Newborn	en	AUS	ARC	standalone		
John Hunter	ARC - Basic Life Support (Adult/Child and Newborn) Standalone	ARC RQI Skills Newborn Ventilations	Vent	Newborn	en	AUS	ARC	standalone		
Murrumbidgee	ARC - Basic Life Support (Adult/Child + Infant) Standalone	ARC RQI Skills Adult/Child Compressions	Comp	Adult/child	en	AUS	ARC	standalone	Entry	
Murrumbidgee	ARC - Basic Life Support (Adult/Child + Infant) Standalone	ARC RQI Skills Adult/Child Ventilation	Vent	Adult/child	en	AUS	ARC	standalone	Entry	
Murrumbidgee	ARC - Basic Life Support (Adult/Child + Infant) Standalone	ARC RQI Skills Infant Compressions	Comp	Infant	en	AUS	ARC	standalone	Entry	
Murrumbidgee	ARC - Basic Life Support (Adult/Child + Infant) Standalone	ARC RQI Skills Infant Ventilations	Vent	Infant	en	AUS	ARC	standalone	Entry	
Murrumbidgee	ARC - Single Rescuer CPR + AED Standalone	ARC BLS Adult/Child CPR	CPR	Adult/child	en	AUS	ARC	standalone	Entry	
Murrumbidgee	ARC - Single Rescuer CPR + AED Standalone	ARC RQI Skills Infant CPR 2:15	CPR 15 2	Infant	en	AUS	ARC	standalone	Entry	
Murrumbidgee	ARC - Single Rescuer CPR + AED Standalone	ARC RQI Skills Adult AED 30 Compressions	AED Comp	Adult	en	AUS	ARC	standalone	Entry	
Murrumbidgee	ARC - Single Rescuer CPR + AED Standalone	ARC BLS Adult/Child CPR	CPR	Adult/child	en	AUS	ARC	standalone		
Murrumbidgee	ARC - Single Rescuer CPR + AED Standalone	ARC RQI Skills Infant CPR 2:15	CPR 15 2	Infant	en	AUS	ARC	standalone		
Murrumbidgee	ARC - Single Rescuer CPR + AED Standalone	ARC RQI Skills Adult AED 30 Compressions	AED Comp	Adult	en	AUS	ARC	standalone		
Cabrini	ARC - Basic Life Support (Adult/Child + AED) Standalone	ARC RQI Skills Adult/Child Compressions	Comp	Adult/child	en	AUS	ARC	standalone		
Cabrini	ARC - Basic Life Support (Adult/Child + AED) Standalone	ARC RQI Skills Adult/Child Ventilation	Vent	Adult/child	en	AUS	ARC	standalone		
Cabrini	ARC - Basic Life Support (Adult/Child + AED) Standalone	ARC RQI Skills Adult AED 30 Compressions	AED Comp	Adult	en	AUS	ARC	standalone		
Cabrini	ARC - Adult/Child Compression Only Standalone	ARC RQI Skills Adult/Child Compressions	Comp	Adult/child	en	AUS	ARC	standalone		
Cabrini	ARC - Basic Life Support (Newborn) Standalone	ARC RQI Skills Newborn Compressions	Comp	Newborn	en	AUS	ARC	standalone		
Cabrini	ARC - Basic Life Support (Newborn) Standalone	ARC RQI Skills Newborn Ventilations	Vent	Newborn	en	AUS	ARC	standalone		
Cabrini	ARC - Basic Life Support (Infant) Standalone	ARC RQI Skills Infant Compressions	Comp	Infant	en	AUS	ARC	standalone		
Cabrini	ARC - Basic Life Support (Infant) Standalone	ARC RQI Skills Infant Ventilations	Vent	Infant	en	AUS	ARC	standalone		
Calvary	Q1	ARC RQI Skills Adult/Child Compressions	Comp	Adult/child	en	AUS	ARC	moc		
Calvary	Q2	ARC RQI Skills Adult/Child Ventilation	Vent	Adult/child	en	AUS	ARC	moc		
Calvary	Q3	ARC RQI Skills Infant Compressions	Comp	Infant	en	AUS	ARC	moc		
Calvary	Q4	ARC RQI Skills Infant Ventilations	Vent	Infant	en	AUS	ARC	moc		
Calvary	Q2	ARC RQI Skills Adult/Child Compressions	Comp	Adult/child	en	AUS	ARC	moc		
Calvary	Q3	ARC RQI Skills Adult/Child Ventilation	Vent	Adult/child	en	AUS	ARC	moc		
Calvary	Q4	ARC RQI Skills Infant Compressions	Comp	Infant	en	AUS	ARC	moc		
Calvary	Q5	ARC RQI Skills Infant Ventilations	Vent	Infant	en	AUS	ARC	moc		
Calvary	Q3	ARC RQI Skills Adult AED 30 Compressions	AED Comp	Adult	en	AUS	ARC	moc		
Calvary	Q3	ARC BLS Adult/Child CPR	CPR	Adult/child	en	AUS	ARC	moc		
Calvary	Q4	ARC RQI Skills Adult/Child Compressions 2 min	Comp 2 min	Adult/child	en	AUS	ARC	moc		
Calvary	Q4	ARC RQI Skills Infant CPR 2:15	CPR 15 2	Infant	en	AUS	ARC	moc		
Calvary	Q5	ARC RQI Skills Adult/Child Compressions	Comp	Adult/child	en	AUS	ARC	moc		
Calvary	Q5	ARC RQI Skills Adult/Child Ventilation	Vent	Adult/child	en	AUS	ARC	moc		
Calvary	Q5	ARC RQI Skills Infant Compressions	Comp	Infant	en	AUS	ARC	moc		
Calvary	Q5	ARC RQI Skills Infant Ventilations	Vent	Infant	en	AUS	ARC	moc		
Calvary	Q6	ARC RQI Skills Adult/Child Compressions	Comp	Adult/child	en	AUS	ARC	moc		
Calvary	Q6	ARC RQI Skills Adult/Child Ventilation	Vent	Adult/child	en	AUS	ARC	moc		
Calvary	Q6	ARC RQI Skills Infant Compressions	Comp	Infant	en	AUS	ARC	moc		
Calvary	Q6	ARC RQI Skills Infant Ventilations	Vent	Infant	en	AUS	ARC	moc		
Calvary	Q7	ARC RQI Skills Adult AED 30 Compressions	Comp	Adult	en	AUS	ARC	moc		
Calvary	Q7	ARC BLS Adult/Child CPR	CPR	Adult/child	en	AUS	ARC	moc		
Calvary	Q8	ARC RQI Skills Adult/Child Compressions 2 min	Comp 2 min	Adult/child	en	AUS	ARC	moc		
Calvary	Q8	ARC RQI Skills Infant CPR 2:15	CPR 15 2	Infant	en	AUS	ARC	moc		
										