Child; ChildType; Parent; ParentType
http://laerdal.com/virtualclinicals/learningobjective/lads1/a2p/01; Objective; http://laerdal.com/virtualclinicals/group/lads1/a2p/01; Group
http://laerdal.com/virtualclinicals/learningobjective/lads1/a2p/02; Objective; http://laerdal.com/virtualclinicals/group/lads1/a2p/01; Group
http://laerdal.com/virtualclinicals/learningobjective/lads1/a2p/03; Objective; http://laerdal.com/virtualclinicals/group/lads1/a2p/01; Group
http://laerdal.com/virtualclinicals/learningobjective/lads1/a2p/04; Objective; http://laerdal.com/virtualclinicals/group/lads1/a2p/01; Group
http://laerdal.com/virtualclinicals/learningobjective/lads1/a2p/05; Objective; http://laerdal.com/virtualclinicals/group/lads1/a2p/01; Group
http://laerdal.com/virtualclinicals/learningobjective/lads1/a2p/06; Objective; http://laerdal.com/virtualclinicals/group/lads1/a2p/01; Group
http://laerdal.com/virtualclinicals/learningobjective/lads1/a2p/07; Objective; http://laerdal.com/virtualclinicals/group/lads1/a2p/01; Group
http://laerdal.com/virtualclinicals/learningobjective/lads1/a2p/08; Objective; http://laerdal.com/virtualclinicals/group/lads1/a2p/02; Group
http://laerdal.com/virtualclinicals/learningobjective/lads1/a2p/09; Objective; http://laerdal.com/virtualclinicals/group/lads1/a2p/02; Group
http://laerdal.com/virtualclinicals/learningobjective/lads1/a2p/10; Objective; http://laerdal.com/virtualclinicals/group/lads1/a2p/02; Group
http://laerdal.com/virtualclinicals/learningobjective/lads1/a2p/11; Objective; http://laerdal.com/virtualclinicals/group/lads1/a2p/02; Group
http://laerdal.com/virtualclinicals/learningobjective/lads1/a2p/12; Objective; http://laerdal.com/virtualclinicals/group/lads1/a2p/02; Group
http://laerdal.com/virtualclinicals/learningobjective/lads1/a2p/13; Objective; http://laerdal.com/virtualclinicals/group/lads1/a2p/03; Group
http://laerdal.com/virtualclinicals/learningobjective/lads1/a2p/14; Objective; http://laerdal.com/virtualclinicals/group/lads1/a2p/03; Group
http://laerdal.com/virtualclinicals/learningobjective/lads1/a2p/15; Objective; http://laerdal.com/virtualclinicals/group/lads1/a2p/03; Group
http://laerdal.com/virtualclinicals/learningobjective/lads1/nclex/03; Objective; http://laerdal.com/virtualclinicals/group/lads1/nclex/01; Group
http://laerdal.com/virtualclinicals/learningobjective/lads1/nclex/14; Objective; http://laerdal.com/virtualclinicals/group/lads1/nclex/01; Group
http://laerdal.com/virtualclinicals/learningobjective/lads1/nclex/15; Objective; http://laerdal.com/virtualclinicals/group/lads1/nclex/01; Group
http://laerdal.com/virtualclinicals/group/lads1/opm/01; Group; http://laerdal.com/virtualclinicals/learningobjective/lads1/a2p/01; Objective
http://laerdal.com/virtualclinicals/group/lads1/opm/02; Group; http://laerdal.com/virtualclinicals/learningobjective/lads1/a2p/01; Objective
http://laerdal.com/virtualclinicals/group/lads1/opm/03; Group; http://laerdal.com/virtualclinicals/learningobjective/lads1/a2p/01; Objective
http://laerdal.com/virtualclinicals/group/lads1/opm/04; Group; http://laerdal.com/virtualclinicals/learningobjective/lads1/a2p/01; Objective
http://laerdal.com/virtualclinicals/group/lads1/opm/05; Group; http://laerdal.com/virtualclinicals/learningobjective/lads1/a2p/02; Objective
http://laerdal.com/virtualclinicals/group/lads1/opm/06; Group; http://laerdal.com/virtualclinicals/learningobjective/lads1/a2p/02; Objective
http://laerdal.com/virtualclinicals/group/lads1/opm/07; Group; http://laerdal.com/virtualclinicals/learningobjective/lads1/a2p/02; Objective
http://laerdal.com/virtualclinicals/group/lads1/opm/08; Group; http://laerdal.com/virtualclinicals/learningobjective/lads1/a2p/02; Objective
http://laerdal.com/virtualclinicals/group/lads1/opm/09; Group; http://laerdal.com/virtualclinicals/learningobjective/lads1/a2p/02; Objective
http://laerdal.com/virtualclinicals/group/lads1/opm/10; Group; http://laerdal.com/virtualclinicals/learningobjective/lads1/a2p/02; Objective
http://laerdal.com/virtualclinicals/group/lads1/opm/11; Group; http://laerdal.com/virtualclinicals/learningobjective/lads1/a2p/03; Objective
http://laerdal.com/virtualclinicals/group/lads1/opm/12; Group; http://laerdal.com/virtualclinicals/learningobjective/lads1/a2p/03; Objective
http://laerdal.com/virtualclinicals/group/lads1/opm/13; Group; http://laerdal.com/virtualclinicals/learningobjective/lads1/a2p/03; Objective
http://laerdal.com/virtualclinicals/group/lads1/opm/14; Group; http://laerdal.com/virtualclinicals/learningobjective/lads1/a2p/03; Objective
http://laerdal.com/virtualclinicals/group/lads1/opm/15; Group; http://laerdal.com/virtualclinicals/learningobjective/lads1/a2p/04; Objective
http://laerdal.com/virtualclinicals/group/lads1/opm/16; Group; http://laerdal.com/virtualclinicals/learningobjective/lads1/a2p/04; Objective
http://laerdal.com/virtualclinicals/group/lads1/opm/17; Group; http://laerdal.com/virtualclinicals/learningobjective/lads1/a2p/05; Objective
http://laerdal.com/virtualclinicals/group/lads1/opm/18; Group; http://laerdal.com/virtualclinicals/learningobjective/lads1/a2p/05; Objective
http://laerdal.com/virtualclinicals/group/lads1/opm/19; Group; http://laerdal.com/virtualclinicals/learningobjective/lads1/a2p/05; Objective
http://laerdal.com/virtualclinicals/group/lads1/opm/20; Group; http://laerdal.com/virtualclinicals/learningobjective/lads1/a2p/06; Objective
http://laerdal.com/virtualclinicals/group/lads1/opm/21; Group; http://laerdal.com/virtualclinicals/learningobjective/lads1/a2p/08; Objective
http://laerdal.com/virtualclinicals/group/lads1/opm/22; Group; http://laerdal.com/virtualclinicals/learningobjective/lads1/a2p/08; Objective
http://laerdal.com/virtualclinicals/group/lads1/opm/23; Group; http://laerdal.com/virtualclinicals/learningobjective/lads1/a2p/08; Objective
http://laerdal.com/virtualclinicals/group/lads1/opm/24; Group; http://laerdal.com/virtualclinicals/learningobjective/lads1/a2p/09; Objective
http://laerdal.com/virtualclinicals/group/lads1/opm/25; Group; http://laerdal.com/virtualclinicals/learningobjective/lads1/a2p/09; Objective
http://laerdal.com/virtualclinicals/group/lads1/opm/26; Group; http://laerdal.com/virtualclinicals/learningobjective/lads1/a2p/09; Objective
http://laerdal.com/virtualclinicals/group/lads1/opm/27; Group; http://laerdal.com/virtualclinicals/learningobjective/lads1/a2p/09; Objective
http://laerdal.com/virtualclinicals/group/lads1/opm/28; Group; http://laerdal.com/virtualclinicals/learningobjective/lads1/a2p/10; Objective
http://laerdal.com/virtualclinicals/group/lads1/opm/29; Group; http://laerdal.com/virtualclinicals/learningobjective/lads1/a2p/10; Objective
http://laerdal.com/virtualclinicals/group/lads1/opm/30; Group; http://laerdal.com/virtualclinicals/learningobjective/lads1/a2p/11; Objective
http://laerdal.com/virtualclinicals/group/lads1/opm/31; Group; http://laerdal.com/virtualclinicals/learningobjective/lads1/a2p/11; Objective
http://laerdal.com/virtualclinicals/group/lads1/opm/32; Group; http://laerdal.com/virtualclinicals/learningobjective/lads1/a2p/11; Objective
http://laerdal.com/virtualclinicals/group/lads1/opm/33; Group; http://laerdal.com/virtualclinicals/learningobjective/lads1/a2p/11; Objective
http://laerdal.com/virtualclinicals/group/lads1/opm/34; Group; http://laerdal.com/virtualclinicals/learningobjective/lads1/a2p/11; Objective
http://laerdal.com/virtualclinicals/group/lads1/opm/35; Group; http://laerdal.com/virtualclinicals/learningobjective/lads1/a2p/12; Objective
http://laerdal.com/virtualclinicals/group/lads1/opm/36; Group; http://laerdal.com/virtualclinicals/learningobjective/lads1/a2p/12; Objective
http://laerdal.com/virtualclinicals/group/lads1/opm/37; Group; http://laerdal.com/virtualclinicals/learningobjective/lads1/a2p/12; Objective
http://laerdal.com/virtualclinicals/group/lads1/opm/38; Group; http://laerdal.com/virtualclinicals/learningobjective/lads1/a2p/13; Objective
http://laerdal.com/virtualclinicals/group/lads1/opm/39; Group; http://laerdal.com/virtualclinicals/learningobjective/lads1/a2p/13; Objective
http://laerdal.com/virtualclinicals/group/lads1/opm/40; Group; http://laerdal.com/virtualclinicals/learningobjective/lads1/a2p/13; Objective
http://laerdal.com/virtualclinicals/group/lads1/opm/41; Group; http://laerdal.com/virtualclinicals/learningobjective/lads1/a2p/14; Objective
http://laerdal.com/virtualclinicals/group/lads1/opm/42; Group; http://laerdal.com/virtualclinicals/learningobjective/lads1/a2p/14; Objective
http://laerdal.com/virtualclinicals/group/lads1/opm/43; Group; http://laerdal.com/virtualclinicals/learningobjective/lads1/a2p/14; Objective
http://laerdal.com/virtualclinicals/group/lads1/opm/11; Group; http://laerdal.com/virtualclinicals/learningobjective/lads1/nclex/03; Objective
http://laerdal.com/virtualclinicals/group/lads1/opm/12; Group; http://laerdal.com/virtualclinicals/learningobjective/lads1/nclex/03; Objective
http://laerdal.com/virtualclinicals/group/lads1/opm/13; Group; http://laerdal.com/virtualclinicals/learningobjective/lads1/nclex/03; Objective
http://laerdal.com/virtualclinicals/group/lads1/opm/14; Group; http://laerdal.com/virtualclinicals/learningobjective/lads1/nclex/03; Objective
http://laerdal.com/virtualclinicals/group/lads1/opm/41; Group; http://laerdal.com/virtualclinicals/learningobjective/lads1/nclex/14; Objective
http://laerdal.com/virtualclinicals/group/lads1/opm/42; Group; http://laerdal.com/virtualclinicals/learningobjective/lads1/nclex/14; Objective
http://laerdal.com/virtualclinicals/group/lads1/opm/43; Group; http://laerdal.com/virtualclinicals/learningobjective/lads1/nclex/14; Objective
http://laerdal.com/virtualclinicals/group/lads1/opm/01; Group; http://laerdal.com/virtualclinicals/group/lads1/nursingprocess/01; Group
http://laerdal.com/virtualclinicals/group/lads1/opm/02; Group; http://laerdal.com/virtualclinicals/group/lads1/nursingprocess/01; Group
http://laerdal.com/virtualclinicals/group/lads1/opm/03; Group; http://laerdal.com/virtualclinicals/group/lads1/nursingprocess/01; Group
http://laerdal.com/virtualclinicals/group/lads1/opm/04; Group; http://laerdal.com/virtualclinicals/group/lads1/nursingprocess/01; Group
http://laerdal.com/virtualclinicals/group/lads1/opm/05; Group; http://laerdal.com/virtualclinicals/group/lads1/nursingprocess/02; Group
http://laerdal.com/virtualclinicals/group/lads1/opm/06; Group; http://laerdal.com/virtualclinicals/group/lads1/nursingprocess/03; Group
http://laerdal.com/virtualclinicals/group/lads1/opm/07; Group; http://laerdal.com/virtualclinicals/group/lads1/nursingprocess/03; Group
http://laerdal.com/virtualclinicals/group/lads1/opm/08; Group; http://laerdal.com/virtualclinicals/group/lads1/nursingprocess/04; Group
http://laerdal.com/virtualclinicals/group/lads1/opm/09; Group; http://laerdal.com/virtualclinicals/group/lads1/nursingprocess/03; Group
http://laerdal.com/virtualclinicals/group/lads1/opm/10; Group; http://laerdal.com/virtualclinicals/group/lads1/nursingprocess/03; Group
http://laerdal.com/virtualclinicals/group/lads1/opm/11; Group; http://laerdal.com/virtualclinicals/group/lads1/nursingprocess/02; Group
http://laerdal.com/virtualclinicals/group/lads1/opm/12; Group; http://laerdal.com/virtualclinicals/group/lads1/nursingprocess/03; Group
http://laerdal.com/virtualclinicals/group/lads1/opm/13; Group; http://laerdal.com/virtualclinicals/group/lads1/nursingprocess/03; Group
http://laerdal.com/virtualclinicals/group/lads1/opm/14; Group; http://laerdal.com/virtualclinicals/group/lads1/nursingprocess/03; Group
http://laerdal.com/virtualclinicals/group/lads1/opm/15; Group; http://laerdal.com/virtualclinicals/group/lads1/nursingprocess/05; Group
http://laerdal.com/virtualclinicals/group/lads1/opm/16; Group; http://laerdal.com/virtualclinicals/group/lads1/nursingprocess/06; Group
http://laerdal.com/virtualclinicals/group/lads1/opm/17; Group; http://laerdal.com/virtualclinicals/group/lads1/nursingprocess/05; Group
http://laerdal.com/virtualclinicals/group/lads1/opm/18; Group; http://laerdal.com/virtualclinicals/group/lads1/nursingprocess/01; Group
http://laerdal.com/virtualclinicals/group/lads1/opm/19; Group; http://laerdal.com/virtualclinicals/group/lads1/nursingprocess/03; Group
http://laerdal.com/virtualclinicals/group/lads1/opm/20; Group; http://laerdal.com/virtualclinicals/group/lads1/nursingprocess/04; Group
http://laerdal.com/virtualclinicals/group/lads1/opm/21; Group; http://laerdal.com/virtualclinicals/group/lads1/nursingprocess/01; Group
http://laerdal.com/virtualclinicals/group/lads1/opm/22; Group; http://laerdal.com/virtualclinicals/group/lads1/nursingprocess/03; Group
http://laerdal.com/virtualclinicals/group/lads1/opm/23; Group; http://laerdal.com/virtualclinicals/group/lads1/nursingprocess/03; Group
http://laerdal.com/virtualclinicals/group/lads1/opm/24; Group; http://laerdal.com/virtualclinicals/group/lads1/nursingprocess/03; Group
http://laerdal.com/virtualclinicals/group/lads1/opm/25; Group; http://laerdal.com/virtualclinicals/group/lads1/nursingprocess/03; Group
http://laerdal.com/virtualclinicals/group/lads1/opm/26; Group; http://laerdal.com/virtualclinicals/group/lads1/nursingprocess/03; Group
http://laerdal.com/virtualclinicals/group/lads1/opm/27; Group; http://laerdal.com/virtualclinicals/group/lads1/nursingprocess/03; Group
http://laerdal.com/virtualclinicals/group/lads1/opm/28; Group; http://laerdal.com/virtualclinicals/group/lads1/nursingprocess/05; Group
http://laerdal.com/virtualclinicals/group/lads1/opm/29; Group; http://laerdal.com/virtualclinicals/group/lads1/nursingprocess/05; Group
http://laerdal.com/virtualclinicals/group/lads1/opm/30; Group; http://laerdal.com/virtualclinicals/group/lads1/nursingprocess/02; Group
http://laerdal.com/virtualclinicals/group/lads1/opm/31; Group; http://laerdal.com/virtualclinicals/group/lads1/nursingprocess/01; Group
http://laerdal.com/virtualclinicals/group/lads1/opm/32; Group; http://laerdal.com/virtualclinicals/group/lads1/nursingprocess/03; Group
http://laerdal.com/virtualclinicals/group/lads1/opm/33; Group; http://laerdal.com/virtualclinicals/group/lads1/nursingprocess/04; Group
http://laerdal.com/virtualclinicals/group/lads1/opm/34; Group; http://laerdal.com/virtualclinicals/group/lads1/nursingprocess/03; Group
http://laerdal.com/virtualclinicals/group/lads1/opm/35; Group; http://laerdal.com/virtualclinicals/group/lads1/nursingprocess/03; Group
http://laerdal.com/virtualclinicals/group/lads1/opm/36; Group; http://laerdal.com/virtualclinicals/group/lads1/nursingprocess/03; Group
http://laerdal.com/virtualclinicals/group/lads1/opm/37; Group; http://laerdal.com/virtualclinicals/group/lads1/nursingprocess/01; Group
http://laerdal.com/virtualclinicals/group/lads1/opm/38; Group; http://laerdal.com/virtualclinicals/group/lads1/nursingprocess/03; Group
http://laerdal.com/virtualclinicals/group/lads1/opm/39; Group; http://laerdal.com/virtualclinicals/group/lads1/nursingprocess/04; Group
http://laerdal.com/virtualclinicals/group/lads1/opm/40; Group; http://laerdal.com/virtualclinicals/group/lads1/nursingprocess/03; Group
http://laerdal.com/virtualclinicals/group/lads1/opm/41; Group; http://laerdal.com/virtualclinicals/group/lads1/nursingprocess/06; Group
http://laerdal.com/virtualclinicals/group/lads1/opm/42; Group; http://laerdal.com/virtualclinicals/group/lads1/nursingprocess/06; Group
http://laerdal.com/virtualclinicals/group/lads1/opm/43; Group; http://laerdal.com/virtualclinicals/group/lads1/nursingprocess/groupopm/Group; ; Group