Id; Name; Kind
http://laerdal.com/virtualclinicals/group/proto1/a2pcategory/clinicalknowledge; Clinical Knowledge; A2P Category
http://laerdal.com/virtualclinicals/group/proto1/a2pcategory/clinicalreasoning; Clinical Reasoning; A2P Category
http://laerdal.com/virtualclinicals/group/proto1/a2pcategory/managementofresponsibility; Management of Responsibility; A2P Category
http://laerdal.com/virtualclinicals/group/proto1/nclexneed/managementofcaresafeandeffectivecareenvironment; Management of Care (Safe and Effective Care Environment); NCLEX Client Need
http://laerdal.com/vitualclinicals/group/proto1/opm/01; Describes pathophysiology of patient(s) condition; OPM
http://laerdal.com/vitualclinicals/group/proto1/opm/02; Demonstrates the ability to recognize patterns and clusters of symptoms from diagnostic testing, subjective statements from patient, past medical history, comorbidities and assessment data ; OPM
http://laerdal.com/vitualclinicals/group/proto1/opm/03; Discusses significance of diagnostic test findings and procedures; OPM
http://laerdal.com/vitualclinicals/group/proto1/opm/04; Retains past learning for application to current clinical situation; OPM
http://laerdal.com/vitualclinicals/group/proto1/opm/05; Evaluates the appropriateness of all medications within the context of treatment goals and current patient condition; OPM
http://laerdal.com/vitualclinicals/group/proto1/opm/06; Collaborates with members of the interprofessional team to revise medications in response to changes in the patient's condition; OPM
http://laerdal.com/vitualclinicals/group/proto1/opm/07; Collaborates with members of the interprofessional team and consults electronic medication resources when additional information is needed to safely administer medications; OPM
http://laerdal.com/vitualclinicals/group/proto1/opm/08; Provides appropriate follow-up to medication administration (i.e. If KCL given, ensure that K+ level is ordered) ; OPM
http://laerdal.com/vitualclinicals/group/proto1/opm/09; Administers high risk medications according to policy; OPM
http://laerdal.com/vitualclinicals/group/proto1/opm/10;  Educates patient/caregivers about medication(s):  name, action, side effects, expected outcome, and post-discharge medication management  ; OPM
http://laerdal.com/vitualclinicals/group/proto1/opm/11; Assesses the appropriateness of provider orders and suggests modifications as appropriate; OPM
http://laerdal.com/vitualclinicals/group/proto1/opm/12; Clarifies orders that are vague or inconsistent with patient condition and escalates process to achieve clarification as needed; OPM
http://laerdal.com/vitualclinicals/group/proto1/opm/13; Initiates STAT orders within a safe timeframe; OPM
http://laerdal.com/vitualclinicals/group/proto1/opm/14; Implements orders from clinical pathways  with little to no assistance; OPM
http://laerdal.com/vitualclinicals/group/proto1/opm/15; Provides care that complies with Core Measures and clinical practice guidelines.; OPM
http://laerdal.com/vitualclinicals/group/proto1/opm/16; Identifies resources related to evidence-based policies, procedures or patient management guidelines (e.g. agency specific policies, guidelines from professional organizations) ; OPM
http://laerdal.com/vitualclinicals/group/proto1/opm/17; Practices in compliance with the RN scope of practice and licensure requirements; OPM
http://laerdal.com/vitualclinicals/group/proto1/opm/18; Recognize situations and regulatory issues that are not in compliance and reports them using the appropriate reporting mechanism (e.g. charge nurse, using chain of command, corporate compliance).  ; OPM
http://laerdal.com/vitualclinicals/group/proto1/opm/19; Completes all required documentation; OPM
http://laerdal.com/vitualclinicals/group/proto1/opm/20; Identifies current quality improvement measures directed toward improvement of unit and/or clinical practice; OPM
http://laerdal.com/vitualclinicals/group/proto1/opm/21; Recognizes situations when assistance from others is required to ensure patient safety or manage workload; OPM
http://laerdal.com/vitualclinicals/group/proto1/opm/22; Seeks assistance from multiple resources, as indicated (i.e. specialists, books/resources/other members of the interprofessional team) ; OPM
http://laerdal.com/vitualclinicals/group/proto1/opm/23; Collaborates with appropriate team members when assessment findings indicate need for intervention; OPM
http://laerdal.com/vitualclinicals/group/proto1/opm/24; Consistently utilizes patient safety technologies (e.g. bar code devices, bedside monitors, smart pump technology) ; OPM
http://laerdal.com/vitualclinicals/group/proto1/opm/25; Holds others accountable using "at the moment" discussions with breaks in safe practice (i.e. hand hygiene).  ; OPM
http://laerdal.com/vitualclinicals/group/proto1/opm/26; Uses practice technologies to aid in problem solving (e.g. care planning guides, medication calculation programs, patient education resources) ; OPM
http://laerdal.com/vitualclinicals/group/proto1/opm/27; Reports unsafe issues using appropriate channels (i.e. generate a work order, enter an incident report, call compliance officer) ; OPM
http://laerdal.com/vitualclinicals/group/proto1/opm/28; Uses a systematic process to assimilate information, analyze data and make clinical decisions (e.g. the nursing process, ADPIE) ; OPM
http://laerdal.com/vitualclinicals/group/proto1/opm/29; Demonstrates sound clinical judgment by interpreting information from multiple resources prior to making decisions; OPM
http://laerdal.com/vitualclinicals/group/proto1/opm/30; Completes baseline assessment at start of care and reassesses as needed; OPM
http://laerdal.com/vitualclinicals/group/proto1/opm/31; Recognizes changes in patient condition through analysis of assessment findings (physical assessment, lab results, diagnostic testing)  ; OPM
http://laerdal.com/vitualclinicals/group/proto1/opm/32; Responds quickly to subtle changes in patients to prevent possible decline in patient status; OPM
http://laerdal.com/vitualclinicals/group/proto1/opm/33; Institutes a higher level of observation/monitoring as required by patient status; OPM
http://laerdal.com/vitualclinicals/group/proto1/opm/34; Takes initiative to intervene appropriately when changes in patient condition are assessed; OPM
http://laerdal.com/vitualclinicals/group/proto1/opm/35; Proactively takes steps to avoid/minimize risks to patient (e.g. fall prevention, turn q2 for pts at risk for pressure ulcers) ; OPM
http://laerdal.com/vitualclinicals/group/proto1/opm/36; Communicates potential for risk to team member(s) (e.g. falls, UTI, BSI, sepsis, etc) ; OPM
http://laerdal.com/vitualclinicals/group/proto1/opm/37; Discusses potential complications and their presentation (e.g. bleeding in post op patient presents as tachycardia and low BP); OPM
http://laerdal.com/vitualclinicals/group/proto1/opm/38; Proactively initiates communication among team members to improve patient care or achieve optimal outcomes; OPM
http://laerdal.com/vitualclinicals/group/proto1/opm/39; Independently conducts appropriate follow up of new interventions; OPM
http://laerdal.com/vitualclinicals/group/proto1/opm/40; Uses chain of command to report behaviors that are not conducive to a healthy work environment; OPM
http://laerdal.com/vitualclinicals/group/proto1/opm/41; Prioritizes care based on changes in patient condition; OPM
http://laerdal.com/vitualclinicals/group/proto1/opm/42; Organizes and prioritizes care for a multi-patient assignment; OPM
http://laerdal.com/vitualclinicals/group/proto1/opm/43; Consistently completes responsibilities within expected time frame; OPM
http://laerdal.com/vitualclinicals/group/proto1/nursingprocess/analysis; Analysis; Nursing Process
http://laerdal.com/vitualclinicals/group/proto1/nursingprocess/assessment; Assessment; Nursing Process
http://laerdal.com/vitualclinicals/group/proto1/nursingprocess/implementation; Implementation; Nursing Process
http://laerdal.com/vitualclinicals/group/proto1/nursingprocess/evaluation; Evaluation; Nursing Process
http://laerdal.com/vitualclinicals/group/proto1/nursingprocess/all; All; Nursing Process
http://laerdal.com/vitualclinicals/group/proto1/nursingprocess/planning; Planning; Nursing Process