Action;Email;COUNTA of Timestamp;;
Viewed Compliance stack for RQI;adam.cates@laerdal.com;5;;
;adam.cates@rqi1stop.com;6;;
;adhill@tgh.org;1;;
;admin@rqi1stop.com;2;;
;adreon.fenderson@rqipartners.com;4;;
;ajit.kumar@laerdal.com;5;;
;akhobbs@columbus.gov;1;;
;akouba@ramchealth.org;1;;
;amanda.hubbard@crmcwy.org;3;;
;amy.starkovich@adventhealth.com;3;;
;angelastephens@texashealth.org;1;;
;awilliams22@gmh.edu;1;;
;benjamin.singer@adventhealth.com;1;;
;brad.krietzberg@palomarhealth.org;1;;
;brian.priddis+laerdal@juiceanalytics.com;2;;
;brook.agrella@adventhealth.com;1;;
;brookeg@greaterregional.org;4;;
;bross@fcmcpa.org;3;;
;bryan.devinney@adventhealth.com;4;;
;bryana.reiter@sclhealth.org;4;;
;calie.jackson@foundationhealth.org;3;;
;ccarter@methodistslh.com;8;;
;chase.smith@laerdal.com;17;;
;chase.smith@rqi1stop.com;1;;
;chris.brichta@rqipartners.com;3;;
;christinalee@tfhd.com;2;;
;christine.reeves@adventhealth.com;1;;
;christoffer.holm.nielsen@laerdal.com;15;;
;cmendenhall@mhsystem.org;1;;
;cpound@gvh-colorado.org;1;;
;cwoerdehoff2@stanthonyhospital.org;1;;
;cynthia_mather@bayhealth.org;6;;
;dalaskat@genesishealth.com;3;;
;dave.scott@rqipartners.com;1;;
;david.fernandez@rqipartners.com;13;;
;david.frahm-falkenberg@laerdal.com;1;;
;david.morton@laerdal.com;2;;
;denise.promes@gcmchealth.com;2;;
;denise.stueck@thedacare.org;2;;
;dfrontz@jcblair.org;1;;
;diana.dranchak@adventhealth.com;1;;
;diana.sayre@rqi1stop.com;28;;
;diana.sayre@rqipartners.com;18;;
;disa.vice@providence.org;3;;
;elamparithi.chandrashekaran@laerdal.com;2;;
;elizabeth.malin@rqipartners.com;3;;
;eringler@ycp.edu;1;;
;espen.henriksen@laerdal.com;7;;
;estrasser@wilsonhealth.org;1;;
;gflores@virginiahospitalcenter.com;1;;
;ginny.skeffington@blessinghealthsystem.org;1;;
;gnyoung@texaschildrens.org;1;;
;grant.davis@northark.edu;1;;
;hiroshi.kumano@laerdal.com;8;;
;janderson@kpcph.com;1;;
;jbischof@jcblair.org;2;;
;jcroston@unitedregional.org;2;;
;jeanne.snelson@rqipartners.com;6;;
;jessicacolson@texashealth.org;1;;
;jheismeyer@kansasheart.com;2;;
;joan.omalley@advocatehealth.com;5;;
;jordan.fiegl@case.edu;5;;
;joseph.martinez@stormontvail.org;1;;
;josh.onia@laerdal.com;1;;
;josh.onia@rqi1stop.com;2;;
;jpenny@wgh.org;6;;
;jsteinke@wilsonhealth.org;5;;
;jtrimpe@iuhealth.org;2;;
;julie.buckingham@rqipartners.com;3;;
;julie_bowen@gibsonhospital.org;1;;
;julieormsby@catholichealth.net;4;;
;juvile73@yahoo.com;4;;
;kara.reposa1@stjoe.org;3;;
;kasselmy@archildrens.org;1;;
;katherine_mullins@gibsonhospital.org;1;;
;kathy.bobbitt@tifs.org;1;;
;kathy.olson@imail.org;3;;
;kaylamorris@sheridanhospital.org;1;;
;kcampbe2@valleyhealthlink.com;1;;
;kenneth.manning@rqiparthers.com;3;;
;kim.flatland@rqipartners.com;6;;
;klintwol@bronsonhg.org;1;;
;knunn@methodisthospital.net;3;;
;kristina.crabtree@parrishmed.com;1;;
;kschrammeck@mdmh.org;11;;
;kstrowbridge@cfvh.org;9;;
;kwilliams@saintfrancis.com;1;;
;leslie.smith@adventhealth.com;2;;
;lisa.powell@adventhealth.com;1;;
;lise.oien@laerdal.com;5;;
;lmarshall@uspi.com;1;;
;lori.zaumseil@rqipartners.com;1;;
;lstc@ahdubai.com;1;;
;lstc1@ahdubai.com;4;;
;luanne.masterson@hitchcock.org;12;;
;lyknight@stanfordchildrens.org;1;;
;mariah.ball@adventhealth.com;1;;
;mark.chandler@rqipartners.com;1;;
;marva.lambert@adventhealth.com;1;;
;mburton@yrmc.org;1;;
;mia.stigsnas-hansen@laerdal.com;2;;
;michaelcole@lakewoodhealthsystem.com;5;;
;mike.palermo@rqi1stop.com;3;;
;miranda.shank@adventhealth.com;2;;
;mkliebenstein@grantregional.com;1;;
;mlightel@samaritanhealthcare.com;2;;
;mparks@carolinas.vcom.edu;1;;
;mriley@andersonregional.org;1;;
;murrayds@ah.org;1;;
;nancy.jones@eehealth.org;1;;
;narendra.poitundi@impelsys.com;1;;
;narendra.poitundi@laerdal.com;30;;
;nicole.cartwright@tenethealth.com;2;;
;ohu001@gannon.edu;1;;
;orley.wick@advocatehealth.com;1;;
;paige.montgomery@lcmchealth.org;1;;
;pamela.mullaney@rqipartners.com;1;;
;pasenk@ashlandmmc.com;1;;
;pwegman@olmmed.org;1;;
;ranjan.venkatesh@laerdal.com;6;;
;rbaker@lcch.net;1;;
;rita.schaefer@blessinghealth.org;2;;
;rod.kimble@rqi1stop.com;2;;
;rod.kimble@rqipartners.com;2;;
;rosa.romo@ttuhsc.edu;2;;
;rusty.oxer@rqipartners.com;6;;
;rustyrqip9@gmail.com;1;;
;scott.cooper@rqi1stop.com;17;;
;scott.cooper@rqipartners.com;8;;
;sharon.mullins@uchealth.com;1;;
;simlabassistant@belmont.edu;1;;
;sjones12@tulane.edu;1;;
;stacey.jurgensen@orthonebraska.com;2;;
;stephanie.proffitt@imail.org;1;;
;susan+laerdal@juiceanalytics.com;12;;
;svigil@kpcph.com;2;;
;swood@unitedregional.org;1;;
;talia_henehan@urmc.rochester.edu;1;;
;tanvir.ahmed@rqipartners.com;1;;
;tapaswini.nayak@laerdal.com;2;;
;tgarretson@windbercare.org;1;;
;timothy_kuhmann@urmc.rochester.edu;1;;
;tina.keeler@rqipartners.com;6;;
;todd.baker@laerdal.com;2;;
;tom.mawman@dignityhealth.org;1;;
;tony.kim@rqipartners.com;15;;
;trosenberger@unitedregional.org;17;;
;vickie.schrenk@avera.org;4;;
;victoria.tovbina@rqipartners.com;9;;
;wendy.murphy@eehealth.org;1;;
;wendy.stock@rqipartners.com;3;;
;wenyun.chang@providence.org;2;;
Viewed eSimulations stack for RQI;admin@rqi1stop.com;5;;
;adreon.fenderson@rqipartners.com;3;;
;aedinger@columbia911.com;1;;
;ajit.kumar@laerdal.com;1;;
;amanda.hubbard@crmcwy.org;1;;
;angelastephens@texashealth.org;3;;
;awilliams22@gmh.edu;1;;
;bcoover@stormontvail.org;2;;
;blevinsky@northwell.edu;1;;
;brian.priddis+laerdal@juiceanalytics.com;3;;
;bryana.reiter@sclhealth.org;1;;
;chase.smith@laerdal.com;8;;
;chase.smith@rqi1stop.com;1;;
;chris.brichta@rqipartners.com;1;;
;christinalee@tfhd.com;2;;
;cynthia_mather@bayhealth.org;1;;
;dalaskat@genesishealth.com;1;;
;david.fernandez@rqipartners.com;2;;
;david.frahm-falkenberg@laerdal.com;1;;
;denise.promes@gcmchealth.com;1;;
;diana.dranchak@adventhealth.com;2;;
;diana.sayre@rqi1stop.com;1;;
;disa.vice@providence.org;3;;
;eivinkve@ntnu.no;1;;
;elizabeth.malin@rqipartners.com;1;;
;espen.henriksen@laerdal.com;1;;
;evelyn.stanfill@libertyhospital.org;1;;
;fbanfer@pennstatehealth.psu.edu;5;;
;gephardtga@archildrens.org;2;;
;gregory.roution@nortonhealthcare.org;1;;
;heikki.acord@foundationhealth.org;1;;
;jcroston@unitedregional.org;2;;
;jens.hansen@laerdal.com;1;;
;jesse.inoncillo@laerdal.com;1;;
;jndelnay@ashlandmmc.com;1;;
;joan.omalley@advocatehealth.com;2;;
;jordan.fiegl@case.edu;1;;
;jsteinke@wilsonhealth.org;7;;
;jtrimpe@iuhealth.org;3;;
;julie_bowen@gibsonhospital.org;1;;
;julieormsby@catholichealth.net;9;;
;juvile73@yahoo.com;2;;
;katherine_mullins@gibsonhospital.org;1;;
;kathy.bobbitt@tifs.org;3;;
;keegan.towry@prismahealth.org;1;;
;kristina.crabtree@parrishmed.com;1;;
;kwilliams@saintfrancis.com;1;;
;lauren.greene@mahhc.org;1;;
;lorretta.mundell@adventhealth.com;2;;
;luanne.masterson@hitchcock.org;3;;
;mburton@yrmc.org;5;;
;miranda.shank@adventhealth.com;1;;
;mlightel@samaritanhealthcare.com;1;;
;mparks@carolinas.vcom.edu;1;;
;mstohon@conemaugh.org;2;;
;murrayds@ah.org;1;;
;narendra.poitundi@laerdal.com;13;;
;naudia.moore@utsouthwestern.edu;1;;
;nicole.cartwright@tenethealth.com;1;;
;niranjan.kumar@laerdal.com;4;;
;niranjan.tulluri@impelsys.com;1;;
;ohu001@gannon.edu;2;;
;orley.wick@advocatehealth.com;1;;
;pamela.mullaney@rqipartners.com;9;;
;pasenk@ashlandmmc.com;1;;
;patty.wilson@uchealth.com;1;;
;pwegman@olmmed.org;2;;
;rachel.meehan@rqipartners.com;2;;
;ranjan.venkatesh@laerdal.com;4;;
;rbaker@lcch.net;7;;
;rod.kimble@rqi1stop.com;1;;
;rod.kimble@rqipartners.com;3;;
;rosa.romo@ttuhsc.edu;3;;
;rueth.alora@marshfieldclinic.org;1;;
;rusty.oxer@rqipartners.com;6;;
;scott.cooper@rqi1stop.com;5;;
;scott.starrett@laerdal.comss;1;;
;sharon.mullins@uchealth.com;1;;
;sjones12@tulane.edu;1;;
;stacey.jurgensen@orthonebraska.com;2;;
;susan+laerdal@juiceanalytics.com;5;;
;svigil@kpcph.com;1;;
;tanvir.ahmed@rqipartners.com;3;;
;timothy_kuhmann@urmc.rochester.edu;1;;
;tina.keeler@rqipartners.com;11;;
;tom.mawman@dignityhealth.org;1;;
;trosenberger@unitedregional.org;1;;
;vickie.schrenk@avera.org;4;;
;victoria.tovbina@rqipartners.com;4;;
;wendy.stock@rqipartners.com;2;;
Viewed Leaderboard stack for RQI;adam.cates@laerdal.com;1;;
;ahornal@mauryregional.com;7;;
;amanda.hubbard@crmcwy.org;5;;
;amber.roberts@pullmanregional.org;2;;
;amy.starkovich@adventhealth.com;2;;
;angelastephens@texashealth.org;1;;
;anna.nordgren@regionorebrolan.se;1;;
;awilliams22@gmh.edu;1;;
;benjamin.singer@adventhealth.com;1;;
;beverly.holland@providence.org;1;;
;brian.priddis+laerdal@juiceanalytics.com;8;;
;bryana.reiter@sclhealth.org;2;;
;calie.jackson@foundationhealth.org;1;;
;carolyn.schultz@providence.org;2;;
;chase.smith@laerdal.com;3;;
;chase.smith@rqi1stop.com;1;;
;chris.brichta@rqipartners.com;1;;
;chris.devenny@rqipartners.com;4;;
;christoffer.holm.nielsen@laerdal.com;1;;
;claudiaro@baptisthealth.net;1;;
;cmendenhall@mhsystem.org;1;;
;cpound@gvh-colorado.org;2;;
;cynthia_mather@bayhealth.org;6;;
;david.fernandez@rqipartners.com;1;;
;david.frahm-falkenberg@laerdal.com;1;;
;david.morton@laerdal.com;1;;
;denise.promes@gcmchealth.com;2;;
;denise.stueck@thedacare.org;1;;
;diana.sayre@rqi1stop.com;9;;
;elamparithi.chandrashekaran@laerdal.com;1;;
;elizabeth.malin@rqipartners.com;3;;
;ericka.jacobs@parrishmed.com;5;;
;espen.henriksen@laerdal.com;2;;
;evelyn.stanfill@libertyhospital.org;1;;
;fbanfer@pennstatehealth.psu.edu;8;;
;gephardtga@archildrens.org;1;;
;gflores@virginiahospitalcenter.com;1;;
;gillmeier@rqi1stop.com;1;;
;ginny.skeffington@blessinghealthsystem.org;1;;
;gnyoung@texaschildrens.org;1;;
;gregory.roution@nortonhealthcare.org;1;;
;gregory.smith@adventhealth.com;1;;
;hiroshi.kumano@laerdal.com;5;;
;jcroston@unitedregional.org;1;;
;jennifer.dillon@rqipartners.com;1;;
;joan.omalley@advocatehealth.com;14;;
;jordan.fiegl@case.edu;2;;
;josh.onia@laerdal.com;4;;
;josh.onia@rqi1stop.com;6;;
;jpenny@wgh.org;1;;
;jtrimpe@iuhealth.org;2;;
;julie_bowen@gibsonhospital.org;2;;
;julieormsby@catholichealth.net;3;;
;juvile73@yahoo.com;2;;
;kara.reposa1@stjoe.org;1;;
;katherine_mullins@gibsonhospital.org;1;;
;kcampbe2@valleyhealthlink.com;1;;
;keegan.towry@prismahealth.org;1;;
;kim.flatland@rqipartners.com;1;;
;kristina.crabtree@parrishmed.com;3;;
;kschrammeck@mdmh.org;1;;
;kstrowbridge@cfvh.org;2;;
;kwilliams@saintfrancis.com;1;;
;lauren.greene@mahhc.org;2;;
;leslie.smith@ahss.org;1;;
;lisa.rupska@mygcgh.org;1;;
;lmarzilli@columbia911.com;1;;
;lstc1@ahdubai.com;1;;
;luanne.masterson@hitchcock.org;3;;
;lyknight@stanfordchildrens.org;1;;
;marva.lambert@adventhealth.com;1;;
;mburton@yrmc.org;1;;
;melissa.wagner@ssmhealth.com;1;;
;melrod@akronchildrens.org;1;;
;michaelcole@lakewoodhealthsystem.com;6;;
;mike.palermo@rqi1stop.com;1;;
;miranda.shank@adventhealth.com;1;;
;mkliebenstein@grantregional.com;1;;
;mparks@carolinas.vcom.edu;1;;
;mstohon@conemaugh.org;1;;
;narendra.poitundi@impelsys.com;1;;
;narendra.poitundi@laerdal.com;40;;
;nicole.cartwright@tenethealth.com;2;;
;nidhin.sudhakaran@laerdal.com;1;;
;niranjan.kumar@laerdal.com;1;;
;niranjan.tulluri@impelsys.com;2;;
;ohu001@gannon.edu;1;;
;orley.wick@advocatehealth.com;2;;
;paige.montgomery@lcmchealth.org;2;;
;pamela.mullaney@rqipartners.com;2;;
;pasenk@ashlandmmc.com;1;;
;patty.wilson@uchealth.com;1;;
;pwegman@olmmed.org;1;;
;rachel.meehan@rqipartners.com;2;;
;ranjan.venkatesh@laerdal.com;4;;
;rbaker@lcch.net;11;;
;rod.kimble@rqi1stop.com;5;;
;rod.kimble@rqipartners.com;4;;
;rosa.romo@ttuhsc.edu;5;;
;russell.griffin@rqipartners.com;3;;
;rusty.oxer@rqipartners.com;4;;
;rustyrqip9@gmail.com;1;;
;scott.cooper@rqi1stop.com;2;;
;scott.cooper@rqipartners.com;2;;
;sjones12@tulane.edu;1;;
;smorse@oswegohealth.org;1;;
;stacey.jurgensen@orthonebraska.com;2;;
;susan+laerdal@juiceanalytics.com;12;;
;svigil@kpcph.com;1;;
;tanvir.ahmed@rqipartners.com;1;;
;timothy_kuhmann@urmc.rochester.edu;1;;
;tina.keeler@rqipartners.com;16;;
;todd.baker@laerdal.com;6;;
;tom.mawman@dignityhealth.org;1;;
;tomas.buxbaum@sll.se;10;;
;trosenberger@unitedregional.org;1;;
;vickie.schrenk@avera.org;4;;
;victoria.tovbina@rqipartners.com;2;;
;wendy.stock@rqipartners.com;4;;
;zachary.parker@ssmhealth.com;1;;
Viewed Manikin Activities stack for RQI;admin@rqi1stop.com;3;;
;adreon.fenderson@rqipartners.com;7;;
;ahornal@mauryregional.com;32;;
;ajdeere@premierhealth.com;2;;
;ajit.kumar@laerdal.com;2;;
;akhobbs@columbus.gov;1;;
;amanda.hubbard@crmcwy.org;2;;
;amber.roberts@pullmanregional.org;1;;
;amy.starkovich@adventhealth.com;1;;
;andremar.amansec@dignityhealth.org;4;;
;angelastephens@texashealth.org;2;;
;anna.nordgren@regionorebrolan.se;3;;
;asundell@wyomingmedicalcenter.org;3;;
;awilliams22@gmh.edu;3;;
;ben.rhudy@rqi1stop.com;1;;
;beverly.holland@providence.org;5;;
;bjjoshi2@illinois.edu;1;;
;brad.krietzberg@palomarhealth.org;2;;
;brandy.spoon@kch.org;1;;
;brian.priddis+laerdal@juiceanalytics.com;17;;
;bridget.ohearne@ssmhealth.com;1;;
;brook.agrella@adventhealth.com;1;;
;bryan.devinney@adventhealth.com;1;;
;bryana.reiter@sclhealth.org;1;;
;calie.jackson@foundationhealth.org;3;;
;carol.stiltner@palomarhealth.org;1;;
;carolyn.schultz@providence.org;1;;
;chase.smith@laerdal.com;14;;
;chase.smith@rqi1stop.com;1;;
;chris.brichta@rqipartners.com;2;;
;chris.devenny@rqipartners.com;2;;
;christinalee@tfhd.com;1;;
;christine.reeves@adventhealth.com;1;;
;christoffer.holm.nielsen@laerdal.com;16;;
;cindy.baxter@rqipartners.com;1;;
;claudiaro@baptisthealth.net;1;;
;cperlow@murrayhospital.org;1;;
;cwoerdehoff2@stanthonyhospital.org;1;;
;cynthia_mather@bayhealth.org;2;;
;dalaskat@genesishealth.com;1;;
;david.fernandez@rqipartners.com;6;;
;deb.parsons@stormontvail.org;1;;
;denise.promes@gcmchealth.com;3;;
;dhiggins@gbmc.org;1;;
;diana.dranchak@adventhealth.com;2;;
;diana.sayre@rqi1stop.com;2;;
;disa.vice@providence.org;3;;
;dwblack@sentara.com;1;;
;ebaker@wilsonhealth.org;1;;
;eivinkve@ntnu.no;12;;
;elamparithi.chandrashekaran@laerdal.com;1;;
;elizabeth.correnti@palomarhealth.org;2;;
;elizabeth.malin@rqipartners.com;9;;
;ellen.tadman@womans.org;1;;
;ericka.jacobs@parrishmed.com;1;;
;espen.henriksen@laerdal.com;10;;
;fbanfer@pennstatehealth.psu.edu;12;;
;fstevens@cvmed.net;1;;
;gephardtga@archildrens.org;1;;
;gflores@virginiahospitalcenter.com;1;;
;ggarza@christieclinic.com;1;;
;gmoorehead@bartletthospital.org;2;;
;gnyoung@texaschildrens.org;6;;
;gregory.roution@nortonhealthcare.org;1;;
;gregory.smith@adventhealth.com;1;;
;haytham.bishtawi@heart.org;1;;
;heikki.acord@foundationhealth.org;8;;
;hiroshi.kumano@laerdal.com;7;;
;James.Fenwick@btuh.nhs.uk;1;;
;jcroston@unitedregional.org;5;;
;jennifer.dillon@rqipartners.com;1;;
;jennifer.hymel@ochsner.org;1;;
;jens.hansen@laerdal.com;1;;
;jesse.inoncillo@laerdal.com;1;;
;jessicacolson@texashealth.org;1;;
;jndelnay@ashlandmmc.com;4;;
;joan.omalley@advocatehealth.com;3;;
;john.guastella@rqipartners.com;1;;
;josefine.hestbaek@laerdal.com;3;;
;josh.onia@laerdal.com;4;;
;josh.onia@rqi1stop.com;5;;
;jpenny@wgh.org;2;;
;jsteinke@wilsonhealth.org;4;;
;jtrimpe@iuhealth.org;8;;
;julia.frederking@laerdal.com;2;;
;julieormsby@catholichealth.net;6;;
;juvile73@yahoo.com;2;;
;kasselmy@archildrens.org;1;;
;katherine_mullins@gibsonhospital.org;1;;
;kathy.bobbitt@tifs.org;1;;
;kathy.gray@kch.org;1;;
;kayla+laerdal@juiceanalytics.com;6;;
;kcampbe2@valleyhealthlink.com;18;;
;keegan.towry@prismahealth.org;3;;
;kenneth.manning@rqiparthers.com;1;;
;Kevin.Stirling@laerdal.com;1;;
;kim.flatland@rqipartners.com;1;;
;klytle@nschd.org;2;;
;kschrammeck@mdmh.org;2;;
;kstrowbridge@cfvh.org;3;;
;kwilliams@saintfrancis.com;1;;
;Leigh.Rickards@laerdal.com;2;;
;lstc@ahdubai.com;1;;
;luanne.masterson@hitchcock.org;18;;
;lyknight@stanfordchildrens.org;1;;
;markovjl@ah.org;2;;
;mburton@yrmc.org;3;;
;melanie.longenecker@towerhealth.org;2;;
;melissa.wagner@ssmhealth.com;1;;
;melrod@akronchildrens.org;1;;
;michaelcole@lakewoodhealthsystem.com;1;;
;mike.palermo@rqi1stop.com;4;;
;miranda.shank@adventhealth.com;6;;
;mkliebenstein@grantregional.com;2;;
;mlightel@samaritanhealthcare.com;1;;
;mmendelow@eisenhowerhealth.org;1;;
;mparks@carolinas.vcom.edu;1;;
;mstohon@conemaugh.org;1;;
;narendra.poitundi@laerdal.com;13;;
;naudia.moore@utsouthwestern.edu;1;;
;nicole.cartwright@tenethealth.com;1;;
;nicolena.mitchell@childrenscolorado.org;1;;
;niranjan.kumar@laerdal.com;3;;
;niranjan.tulluri@impelsys.com;1;;
;ohu001@gannon.edu;3;;
;orley.wick@advocatehealth.com;2;;
;paige.montgomery@lcmchealth.org;1;;
;pamela.mullaney@rqipartners.com;3;;
;pasenk@ashlandmmc.com;1;;
;patty.wilson@uchealth.com;2;;
;pwegman@olmmed.org;2;;
;rachel.meehan@rqipartners.com;3;;
;ranjan.venkatesh@laerdal.com;6;;
;rbaker@lcch.net;6;;
;rita.schaefer@blessinghealth.org;1;;
;rod.kimble@rqi1stop.com;6;;
;rod.kimble@rqipartners.com;1;;
;rosa.romo@ttuhsc.edu;3;;
;rose.gennaro@rqipartners.com;1;;
;rusty.oxer@rqipartners.com;7;;
;rustyrqip9@gmail.com;1;;
;scott.cooper@rqi1stop.com;2;;
;scott.cooper@rqipartners.com;2;;
;scott.starrett@laerdal.comss;1;;
;sjones12@tulane.edu;1;;
;smorse@oswegohealth.org;1;;
;srilakshmi.ramesh@laerdal.com;1;;
;stacey.jurgensen@orthonebraska.com;3;;
;stephanie.proffitt@imail.org;1;;
;susan+laerdal@juiceanalytics.com;1;;
;svigil@kpcph.com;2;;
;tanvir.ahmed@rqipartners.com;1;;
;tapaswini.nayak@laerdal.com;2;;
;tina.keeler@rqipartners.com;13;;
;todd.baker@laerdal.com;10;;
;tom.mawman@dignityhealth.org;1;;
;tony.hosmans@chu.ulg.ac.be;1;;
;trosenberger@unitedregional.org;1;;
;vickie.schrenk@avera.org;6;;
;victoria.tovbina@rqipartners.com;7;;
;wanders@yrmc.org;3;;
;wendy.stock@rqipartners.com;3;;
Viewed Overview stack for RQI;abarron@choc.org;3;;
;achabrian@tgh.org;6;;
;aclugh@adventisthealthcare.com;1;;
;adam.cates@laerdal.com;29;;
;adam.cates@rqi1stop.com;103;;
;adhill@tgh.org;6;;
;admin@rqi1stop.com;41;;
;adreon.fenderson@rqipartners.com;21;;
;adrian.lamb@vcuhealth.org;1;;
;aduff@mhsystem.org;2;;
;aedinger@columbia911.com;1;;
;ahornal@mauryregional.com;20;;
;ajdeere@premierhealth.com;1;;
;ajit.kumar@laerdal.com;32;;
;akhobbs@columbus.gov;13;;
;akil.svitzer@laerdal.com;6;;
;akouba@ramchealth.org;17;;
;alicia.weber@ssmhealth.com;3;;
;allison.lyons1@bswhealth.org;3;;
;allysa.stephens@hannibalregional.org;9;;
;alobb@oswegohealth.org;1;;
;alysha@appliedbehaviortechnologies.com;1;;
;amanda.fessler@blessinghealth.org;2;;
;amanda.hubbard@crmcwy.org;10;;
;amber.roberts@pullmanregional.org;5;;
;amy.goss@unitypoint.org;5;;
;amy.piazza@adventhealth.com;4;;
;amy.starkovich@adventhealth.com;11;;
;analytics2juice@laerdal.onmicrosoft.com;1;;
;andrea.jacobs@ascension.org;1;;
;andremar.amansec@dignityhealth.org;26;;
;angela.heaney@sclhs.net;3;;
;angelastephens@texashealth.org;3;;
;ann.klusmeier@uchealth.com;1;;
;anna.granqvist@regionorebrolan.se;3;;
;anna.nordgren@regionorebrolan.se;3;;
;ann-kristin.johansson@regionorebrolan.se;2;;
;anuj.pandey@laerdal.com;55;;
;arodgers2@pennstatehealth.psu.edu;1;;
;asatko@bayada.com;1;;
;ashley.n.howard@adventhealth.com;2;;
;asundell@wyomingmedicalcenter.org;10;;
;awilliams22@gmh.edu;4;;
;bbar212@yahoo.com;2;;
;bcoover@stormontvail.org;27;;
;beckymiltenberger@chiwest.com;4;;
;beckyn@hiltonheadislandsc.gov;3;;
;beckyw@dmhhs.org;3;;
;ben.rhudy@laerdal.com;15;;
;ben.rhudy@rqi1stop.com;11;;
;ben.thompson@blessinghealth.org;1;;
;benjamin.singer@adventhealth.com;3;;
;beverly.holland@providence.org;9;;
;beverly.ray@dignityhealth.org;2;;
;bjjoshi2@illinois.edu;1;;
;blackm@ah.org;6;;
;blevinsky@northwell.edu;11;;
;blocastro@bmcf.com;5;;
;bobby.woody@nghs.com;2;;
;brad.krietzberg@palomarhealth.org;28;;
;bradley.neukirch@skylakes.org;2;;
;brandon.banik@guthrie.org;1;;
;brandy.spoon@kch.org;3;;
;brian.priddis+laerdal@juiceanalytics.com;14;;
;bridget.ohearne@ssmhealth.com;12;;
;brock.noldy@guthrie.org;2;;
;brook.agrella@adventhealth.com;7;;
;brookeg@greaterregional.org;4;;
;bross@fcmcpa.org;24;;
;bryan.devinney@adventhealth.com;8;;
;bryana.reiter@sclhealth.org;6;;
;bryce_condit@urmc.rochester.edu;47;;
;bwright@sfsh.com;2;;
;c.martin@wsu.edu;3;;
;calie.jackson@foundationhealth.org;17;;
;callie.searley@childrenscolorado.org;4;;
;carol.junette@rqipartners.com;10;;
;carol.stiltner@palomarhealth.org;1;;
;carolyn.schultz@providence.org;1;;
;carrie.pierrelus@adventhealth.com;8;;
;carrie.rucker@nghs.com;1;;
;carrieheid@sheridanhospital.org;25;;
;casey.scott@nhhsqualitycare.org;3;;
;cbelanger@ashlandmmc.com;2;;
;cfolkert@noch.org;1;;
;cfuller@apprhs.org;2;;
;chad.nelson@adventhealth.com;1;;
;chantell.sandy@adventhealth.com;2;;
;charan.kumar@laerdal.com;17;;
;chase.smith@laerdal.com;64;;
;chase.smith@rqi1stop.com;25;;
;cherish.frank@baycare.org;2;;
;cherryl@charlescountymd.gov;4;;
;cheryl.marshall@cchmc.org;3;;
;chollan1@hurleymc.com;1;;
;chris.brichta@rqipartners.com;30;;
;chris.devenny@rqipartners.com;22;;
;christinalee@tfhd.com;3;;
;christine.reeves@adventhealth.com;1;;
;christoffer.holm.nielsen@laerdal.com;90;;
;chumleydk@archildrens.org;1;;
;cindy.baxter@laerdal.com;1;;
;cindy.baxter@rqipartners.com;6;;
;clapp.lexanne@bvrmc.org;1;;
;claudiaro@baptisthealth.net;1;;
;cmartin@kpcph.com;1;;
;cmendenhall@mhsystem.org;9;;
;colin.a.treem@hitchcock.org;3;;
;colsmith@choc.org;1;;
;cpallo@conemaugh.org;2;;
;cperlow@murrayhospital.org;2;;
;cpound@gvh-colorado.org;4;;
;cracine@lasvegasnevada.gov;3;;
;cwashi34@jhmi.edu;5;;
;cwoerdehoff2@stanthonyhospital.org;3;;
;cynthia.steinbach@vcuhealth.org;11;;
;cynthia_mather@bayhealth.org;6;;
;czalcman@unitedregional.org;1;;
;dag.t.johannesen@uia.no;3;;
;dalaskat@genesishealth.com;7;;
;dalmeida@bdch.org;3;;
;dan.stampone@rqipartners.com;6;;
;Dan.WEST@spirehealthcare.com;1;;
;daniel.espinoza@advocatehealth.com;1;;
;danielle.lutz@yahoo.com;8;;
;darcim@mrhmoab.org;1;;
;darren.miller@ssmhealth.com;7;;
;darryl.grant@rqipartners.com;2;;
;dave.scott@rqipartners.com;11;;
;david.barker@rqipartners.com;1;;
;david.fernandez@rqipartners.com;37;;
;david.frahm-falkenberg@laerdal.com;2;;
;david.morton@laerdal.com;8;;
;david.vandevooren@foundationhealth.org;5;;
;dbello@memorialcare.org;1;;
;dcalloway279@yahoo.com;1;;
;deb.parsons@stormontvail.org;1;;
;debbie.benton@sharp.com;2;;
;debbie.branum@adventhealth.com;1;;
;debbie.dickie@sharp.com;1;;
;debbie.meliti@adventhealth.com;1;;
;deborah_hurley@urmc.rochester.edu;3;;
;denise.promes@gcmchealth.com;15;;
;denise.stueck@thedacare.org;4;;
;dennis.hall@umcsn.com;1;;
;derek.nelms@nghs.com;6;;
;desiree.peterson@bswhealth.org;1;;
;dfrontz@jcblair.org;18;;
;dgordon@tgh.org;1;;
;dhiggins@gbmc.org;6;;
;diana.dranchak@adventhealth.com;4;;
;diana.sayre@rqi1stop.com;76;;
;diana.sayre@rqipartners.com;48;;
;dianeschmitt@benefis.org;3;;
;dianet@greaterregional.org;5;;
;disa.vice@providence.org;8;;
;dragona@email.chop.edu;1;;
;dreilly@kansasheart.com;5;;
;dstoebe@eisenhowerhealth.org;1;;
;dwblack@sentara.com;5;;
;eamondaul@primehealthcare.com;1;;
;ebaker@wilsonhealth.org;2;;
;ecoleman@bethlehem-pa.gov;2;;
;ecortese-salalila@tgh.org;5;;
;eivinkve@ntnu.no;7;;
;elaine.cooper@adamshealthnetwork.org;1;;
;elamparithi.chandrashekaran@laerdal.com;6;;
;elizabeth.celeste@adventhealth.com;8;;
;elizabeth.correnti@palomarhealth.org;11;;
;elizabeth.malin@rqipartners.com;87;;
;ellen.wittekind@uchealth.com;2;;
;erbayrij@email.chop.edu;1;;
;eric.mccullough@ascension.org;2;;
;erica.l.becker@hudsonhospital.org;2;;
;ericka.jacobs@parrishmed.com;17;;
;erik.mantsch@rqipartners.com;12;;
;eringler@ycp.edu;2;;
;espen.henriksen@laerdal.com;20;;
;estrasser@wilsonhealth.org;12;;
;eva.columbus@lindnercenter.org;3;;
;eva.columbus@uchealth.com;1;;
;evelyn.stanfill@libertyhospital.org;4;;
;ewaters@skylakes.org;4;;
;fbanfer@pennstatehealth.psu.edu;59;;
;felicevrogers@tgh.org;1;;
;franchetta@essentialhealthed.com;2;;
;fstevens@cvmed.net;2;;
;george.murray@sluhn.org;6;;
;gephardtga@archildrens.org;2;;
;gflores@virginiahospitalcenter.com;2;;
;ggarza@christieclinic.com;6;;
;gillmeier@rqi1stop.com;23;;
;ginny.skeffington@blessinghealthsystem.org;4;;
;glori.strickler@matsugov.us;1;;
;gmoorehead@bartletthospital.org;5;;
;gnyoung@texaschildrens.org;6;;
;grant.davis@northark.edu;11;;
;gregory.norton@osumc.edu;6;;
;gregory.roution@nortonhealthcare.org;2;;
;gregory.smith@adventhealth.com;9;;
;hanna.vessey@foundationhealth.org;4;;
;haytham.bishtawi@heart.org;4;;
;heartcodedemo@gmail.com;11;;
;heather.besaw@mahhc.org;5;;
;heather.seitz@rqi1stop.com;5;;
;heather.seitz@rqipartners.com;1;;
;heidi.tatum@crmcwy.org;2;;
;heikki.acord@foundationhealth.org;8;;
;hemal.dave@laerdal.com;1;;
;henrik.kofod@laerdal.com;3;;
;hillary.l.mcadams@uth.tmc.edu;13;;
;hiroshi.kumano@laerdal.com;18;;
;hittaa@mchealth.net;2;;
;hmorales@kumc.edu;3;;
;hoffman.david@marshfieldclinic.org;1;;
;holly.topper@uchealth.com;2;;
;hsalter@wkhs.com;2;;
;info@healthsav.com;1;;
;jacksome@tcc.fl.edu;3;;
;jaimie.talir@ssmhealth.com;1;;
;jalcala@iuhealth.org;2;;
;jamie.hosley@va.gov;2;;
;jamiem@dhchd.org;4;;
;janderson@kpcph.com;7;;
;jawilliamscns@gmail.com;3;;
;jbischof@jcblair.org;10;;
;jcantriel@crmc.org;1;;
;jcroston@unitedregional.org;10;;
;jdzabielski@geisinger.edu;2;;
;jean.riedl@ssmhealth.com;1;;
;jeanie.staton@laerdal.coms;1;;
;jeanne.snelson@rqipartners.com;20;;
;jelmendorf@nlh.org;2;;
;jennifer.bates@ssmhealth.com;1;;
;jennifer.dillon@rqipartners.com;14;;
;jennifer.hayden@ssmhealth.com;1;;
;jennifer.hymel@ochsner.org;3;;
;jennifer.reno@nkch.org;1;;
;jens.hansen@laerdal.com;21;;
;jesse.inoncillo@laerdal.com;8;;
;jessica.keller@ssmhealth.com;1;;
;jessicacolson@texashealth.org;3;;
;jfritz@bethlehem-pa.gov;9;;
;jheismeyer@kansasheart.com;10;;
;jhinkle@apprhs.org;7;;
;jill.talbot@imail.org;2;;
;jimpribble1@mac.com;2;;
;jmahowald@krmc.org;1;;
;jmanley@akronchildrens.org;1;;
;jmcfee@lmhealth.org;7;;
;jmprather@mdh.org;1;;
;jmremetta@geisinger.edu;1;;
;jndelnay@ashlandmmc.com;8;;
;joan.omalley@advocatehealth.com;600;;
;joann.santiago@umcsn.com;3;;
;joanna.griffin@sluhn.org;1;;
;joaten@bethlehem-pa.gov;1;;
;jobrien@hcmc-tn.org;1;;
;johan.persson@laerdal.com;15;;
;john.guastella@rqipartners.com;12;;
;johnm@baptisthealth.net;1;;
;jolynn.humel@doh.hawaii.gov;4;;
;jonesrob@charlescountymd.gov;7;;
;jordan.fiegl@case.edu;11;;
;josefine.hestbaek@laerdal.com;16;;
;joseph.martinez@stormontvail.org;12;;
;josh.onia@laerdal.com;44;;
;josh.onia@rqi1stop.com;131;;
;josh.onia@rqipartners.com;8;;
;jpenny@wgh.org;15;;
;jplawrence@bmhvt.org;13;;
;jsteele@choc.org;2;;
;jsteinke@wilsonhealth.org;31;;
;jtrimpe@iuhealth.org;11;;
;judy.miller@rqipartners.com;3;;
;julia.digovanni@rqipartners.com;1;;
;julia.frederking@laerdal.com;3;;
;julie.buckingham@rqipartners.com;25;;
;julie.kingsley@guthrie.org;2;;
;julie.snyder@thompsonhealth.org;10;;
;julie_bowen@gibsonhospital.org;1;;
;julieormsby@catholichealth.net;10;;
;Justin.Blackett@UHBristol.nhs.uk;1;;
;juvile73@yahoo.com;11;;
;jwarnone@stgeorgefire.com;1;;
;jwilliams28@kumc.edu;11;;
;kamile.boggs@ssmhealth.com;4;;
;kara.reposa1@stjoe.org;2;;
;karen.colegrove@guthrie.org;1;;
;karen.romine@ssmhealth.com;2;;
;karina.saucedo@umcsn.com;1;;
;karleyawright@tgh.org;2;;
;karrie.voss@blessinghealth.org;1;;
;kasselmy@archildrens.org;14;;
;katherine_mullins@gibsonhospital.org;2;;
;kathleen.meyer@mahhc.org;2;;
;kathryn.tanet@lcmchealth.org;22;;
;kathy.bobbitt@tifs.org;24;;
;kathy.gray@kch.org;7;;
;kathy.olson@imail.org;7;;
;kathyumphres@benefis.org;4;;
;kayla+laerdal@juiceanalytics.com;35;;
;kaylamorris@sheridanhospital.org;10;;
;kbeaulie@hs.uci.edu;3;;
;kcampbe2@valleyhealthlink.com;42;;
;keddleman@ochsner.org;3;;
;keegan.towry@prismahealth.org;3;;
;keevah.davis@matsugov.us;23;;
;kellie.mccarthy@ssmhealth.com;1;;
;kellie_murphy@urmc.rochester.edu;7;;
;kelly.buczak@cchmc.org;26;;
;kelly.papagianis@ssmhealth.com;1;;
;kendra.meany@blessinghealth.org;1;;
;kenneth.manning@rqiparthers.com;13;;
;Kevin.Stirling@laerdal.com;5;;
;khatton@jcpsn.us;10;;
;kim.flatland@rqipartners.com;23;;
;kim.wigen-dewey@providence.org;2;;
;kimberly.burk@deaconess.com;1;;
;kimberly.friedmeyer@adventhealth.com;2;;
;kishan.nc@laerdal.com;2;;
;klee94@uthsc.edu;1;;
;klintwol@bronsonhg.org;14;;
;klytle@nschd.org;14;;
;kmurphy@tgh.org;2;;
;knunn@methodisthospital.net;2;;
;kolsen@iuhealth.org;4;;
;kristi.stevenson@imail.org;3;;
;kristina.crabtree@parrishmed.com;5;;
;kschaefer@chw.org;1;;
;kschrammeck@mdmh.org;52;;
;kstewa34@jhmi.edu;2;;
;kstrowbridge@cfvh.org;33;;
;kswearinger@windbercare.org;1;;
;kteeter@kumc.edu;3;;
;kuehnhold.debra@marshfieldclinic.org;2;;
;kvick@wisehealthsystem.com;1;;
;kwilliams@saintfrancis.com;1;;
;laura.davis@nhhsqualitycare.org;8;;
;laura.dorner@adventhealth.com;1;;
;laura.reller@ssmhealth.com;1;;
;lauren.greene@mahhc.org;5;;
;lbrown@bmhvt.org;3;;
;lcallihan@murrayhospital.org;13;;
;leela.manohar@laerdal.com;2;;
;Leigh.Rickards@laerdal.com;4;;
;leslie.smith@adventhealth.com;5;;
;leslie.smith@ahss.org;12;;
;linda.egburtson@flhcon.edu;9;;
;lindsay.hilado@adventhealth.com;2;;
;lindsy.sampson@imail.org;2;;
;lisa.eldridge@flhcon.edu;6;;
;lisa.ennefors@regionorebrolan.se;1;;
;lisa.mathis@rqipartners.com;18;;
;lisa.powell@adventhealth.com;2;;
;lisa.rupska@mygcgh.org;8;;
;lise.oien@laerdal.com;12;;
;lloyd.parry@utsouthwestern.edu;4;;
;lmarshall@uspi.com;3;;
;lmarzilli@columbia911.com;6;;
;lmendez@memorialcare.org;8;;
;lmondeik@chw.org;1;;
;loretta.benton@advocatehealth.com;3;;
;lori.zaumseil@rqipartners.com;6;;
;lorretta.mundell@adventhealth.com;7;;
;lrf7@pct.edu;4;;
;lrhelmbrec@premierhealth.com;2;;
;lschafer@unitedregional.org;1;;
;lstc@ahdubai.com;1;;
;lstc1@ahdubai.com;66;;
;luanne.masterson@hitchcock.org;34;;
;lwalden@ascension.org;1;;
;lyknight@stanfordchildrens.org;3;;
;malonek@deborah.org;2;;
;manderson@krmc.org;5;;
;mandy.edmunds@blessinghealth.org;5;;
;marcella.will@wvumedicine.org;1;;
;margaret.l.davis@adventhealth.com;2;;
;margaret.wicher@providence.org;3;;
;maria.beam@adventhealth.com;2;;
;mariah.ball@adventhealth.com;2;;
;marialuisa.delacruz@adventhealth.com;2;;
;marissa.c.ramos@ssmhealth.com;5;;
;marjorie.routt@nih.org;2;;
;mark.chandler@rqipartners.com;23;;
;markovjl@ah.org;4;;
;marva.lambert@adventhealth.com;1;;
;mary.davis@nkch.org;2;;
;mary.knox@adventhealth.com;2;;
;mary.logan@ssmhealth.com;2;;
;matthew.bellmay@med.uvm.edu;1;;
;matthew.willams@rqipartners.com;4;;
;mayra.cruz@providence.org;1;;
;mbpa@twc.com;4;;
;mburris.1@gmail.com;1;;
;mburton@yrmc.org;17;;
;mcarper@childrensomaha.org;37;;
;mcgjessica@wgh.org;10;;
;mdumont@bartletthospital.org;12;;
;megan.wolf@ssmhealth.com;1;;
;melanie.blenkarn@ochsner.org;2;;
;melanie.longenecker@towerhealth.org;4;;
;melanie.rodriguez@rqipartners.com;8;;
;melanie.rodriguez1@upr.edu;1;;
;melinda.thompson@ssmhealth.com;3;;
;melissa.lee@umcsn.com;2;;
;melissa.wagner@ssmhealth.com;1;;
;melrod@akronchildrens.org;3;;
;mford@hillsdalehospital.com;1;;
;mgrogitsky@kpcph.com;2;;
;mhamula@windbercare.org;3;;
;mhigman@swhealth.org;9;;
;mia.stigsnas-hansen@laerdal.com;4;;
;michael.burris@rqipartners.com;10;;
;michael.herbert@rqipartners.com;9;;
;michael@rqi1stop.com;4;;
;michaelcole@lakewoodhealthsystem.com;13;;
;michele.woonton@lawrencegeneral.org;2;;
;michelle.oconnor@rqipartners.com;7;;
;mick.smith@rqipartners.com;22;;
;mike.palermo@rqi1stop.com;22;;
;miranda.shank@adventhealth.com;10;;
;mkliebenstein@grantregional.com;17;;
;mlightel@samaritanhealthcare.com;8;;
;mlittle@sfsh.com;4;;
;mllamoreux@geisinger.edu;2;;
;mmcmanaway@krmc.org;5;;
;mmendelow@eisenhowerhealth.org;4;;
;mnavarro@virginiahospitalcenter.com;1;;
;molthoff@stormontvail.org;12;;
;monteggia.shawn@marshfieldclinic.org;1;;
;montrece.alexander@tifs.org;1;;
;mparks@carolinas.vcom.edu;4;;
;mpetak@windbercare.org;3;;
;mriley@andersonregional.org;8;;
;mrios@memorialcare.org;5;;
;mrlovelace@uabmc.edu;2;;
;mstohon@conemaugh.org;15;;
;murrayds@ah.org;9;;
;mxlopez@ascension.org;5;;
;nancy.baker@caromonthealth.org;6;;
;nancy.felde@blessinghealth.org;2;;
;nancy.jones@eehealth.org;4;;
;nancya@greaterregional.org;8;;
;narendra.poitundi@impelsys.com;1;;
;narendra.poitundi@laerdal.com;140;;
;naudia.moore@utsouthwestern.edu;10;;
;nicholas.wasley@sluhn.org;1;;
;nicole.cartwright@tenethealth.com;7;;
;nicole.hecht@adventhealth.com;1;;
;nicole.sachitano@lcmchealth.org;16;;
;nicolena.mitchell@childrenscolorado.org;2;;
;nidhin.sudhakaran@laerdal.com;19;;
;nikolay.nikolov@laerdal.com;2;;
;niranjan.kumar@laerdal.com;23;;
;niranjan.tulluri@impelsys.com;4;;
;nmead@islandhospital.org;8;;
;noel.madic@umcsn.com;1;;
;ohu001@gannon.edu;3;;
;orley.wick@advocatehealth.com;10;;
;paige.montgomery@lcmchealth.org;5;;
;pam.maxwell@ssmhealth.com;7;;
;pamela.mullaney@rqipartners.com;16;;
;pamela.soler@adventhealth.com;4;;
;pasenk@ashlandmmc.com;1;;
;patricia.baerenwald@thedacare.org;4;;
;patricia.mclaurin@ahmgt.com;7;;
;patrick.hammons@osumc.edu;6;;
;patty.wilson@uchealth.com;12;;
;pbristol@bmhvt.org;10;;
;pcklacman@texashealth.org;1;;
;pfort@yrmc.org;4;;
;pjduncan@mdh.org;1;;
;pmartin@columbus.gov;1;;
;pnarag22@hendrickhealth.org;1;;
;pritpal.sehgal@laerdal.com;6;;
;purnima.chinni@laerdal.com;1;;
;pwegman@olmmed.org;2;;
;rachel.meehan@rqipartners.com;34;;
;rachelw@snoqualmiehospital.org;7;;
;rae.rhodes@conwayregional.org;2;;
;ramona.phelps@adventhealth.com;2;;
;ramprasad.evv@laerdal.com;1;;
;ranjan.venkatesh@impelsys.com;1;;
;ranjan.venkatesh@laerdal.com;56;;
;rbaker@lcch.net;26;;
;rbrooks@mhsystem.org;3;;
;rcupit@conwayregional.org;2;;
;rebecca.miller@palomarhealth.org;1;;
;receene.abel@hrrmc.net;1;;
;recruitmentandretention@parrishmed.com;1;;
;releblan@texaschildrens.org;2;;
;renee.rubner@gvltec.edu;3;;
;renita.crowdis@adventhealth.com;1;;
;richard.thompson@adventhealth.com;1;;
;rita.schaefer@blessinghealth.org;11;;
;robin.bouffard@adventhealth.com;4;;
;robin.pane@guthrie.org;1;;
;robin.roberts1@bswhealth.org;2;;
;rod.kimble@rqi1stop.com;32;;
;rod.kimble@rqipartners.com;12;;
;rojalin.dash@laerdal.com;3;;
;rosa.romo@ttuhsc.edu;9;;
;rose.gennaro@rqipartners.com;12;;
;rstockdale@kumc.edu;3;;
;rueth.alora@marshfieldclinic.org;3;;
;russell.griffin@rqipartners.com;14;;
;russell.short@rqipartners.com;3;;
;russell@rqi1stop.com;19;;
;russgriffin2cf@gmail.com;11;;
;rusty.oxer@rqipartners.com;40;;
;rustyrqip9@gmail.com;2;;
;samantha.m.osorio@uth.tmc.edu;7;;
;samuel.dadson@providence.org;3;;
;sangeetha.simon@laerdal.com;3;;
;sanjiv.b@laerdal.com;16;;
;sara.anderson@phfmtexas.com;1;;
;sara.prewit@umchealthsystem.com;4;;
;sarah.e.page@med.uvm.edu;15;;
;sastle@krmc.org;5;;
;sbanton@iuhealth.org;2;;
;sbarnes2@primehealthcare.com;3;;
;scott.cely@prismahealth.org;2;;
;scott.cooper@rqi1stop.com;141;;
;scott.cooper@rqipartners.com;46;;
;scott.starrett@laerdal.comss;2;;
;sdorsey@childrensomaha.org;5;;
;sduquet1@hurleymc.com;1;;
;seetharam.p@laerdal.com;10;;
;sestephan@akronchildrens.org;3;;
;sfralich@auburn.vcom.edu;1;;
;sgehrin@valleyhealth.com;3;;
;shadi.qaddoura@uth.tmc.edu;8;;
;sharon.mullins@uchealth.com;2;;
;sharon.schmidt@ssmhealth.com;2;;
;shellahg@tcc.fl.edu;3;;
;shelly.keller@salemhealth.org;1;;
;shirley.loughlin@midlandhealth.org;4;;
;Sian.DAVIES@spirehealthcare.com;3;;
;simlabassistant@belmont.edu;1;;
;sjones12@tulane.edu;1;;
;skatta@ahdubai.com;1;;
;skog.cassandra@bvrmc.org;4;;
;slgrudzinskicabelly@geisinger.edu;5;;
;smitdj1@mchealth.net;1;;
;smorse@oswegohealth.org;1;;
;sneal@primehealthcare.com;4;;
;sreejith.karonnan@laerdal.com;6;;
;srilakshmi.ramesh@laerdal.com;47;;
;stacey.jurgensen@orthonebraska.com;3;;
;staceyt@dmhhs.org;2;;
;stephanie.evans@rqipartners.com;9;;
;stephanie.lawson@ssmhealth.com;2;;
;stephanie.proffitt@imail.org;7;;
;stephanie.robles@sharp.com;2;;
;stephanie_lage@gibsonhospital.org;1;;
;stephen.wilson@adventhealth.com;1;;
;stephenie.grover@ascension.org;2;;
;steven.facker@providence.org;6;;
;stower@lmhealth.org;2;;
;susan+laerdal@juiceanalytics.com;21;;
;suzanne.sands@rqipartners.com;6;;
;svigil@kpcph.com;7;;
;swood@unitedregional.org;53;;
;talia_henehan@urmc.rochester.edu;1;;
;tami.batteiger@tenethealth.com;4;;
;tanvir.ahmed@rqipartners.com;4;;
;tapaswini.nayak@impelsys.com;1;;
;tapaswini.nayak@laerdal.com;19;;
;tara.fadden@hshs.org;2;;
;tatsuya.kuchibayashi@laerdal.com;1;;
;taylor.fauerbach@deaconess.com;3;;
;tcochran@wkhs.com;1;;
;tczyrnik@conemaugh.org;5;;
;t-debbie.heard@heart.org;3;;
;tgarretson@windbercare.org;3;;
;theju.krishna@laerdal.com;19;;
;theresa.eberhardt@adventhealth.com;3;;
;theresa.friederich@health.slu.edu;1;;
;thomas.bjorndahl@regionorebrolan.se;6;;
;tildenj@apdmh.org;1;;
;timothy_kuhmann@urmc.rochester.edu;2;;
;tina.keeler@rqipartners.com;72;;
;tinam@mrhmoab.org;2;;
;tmelissa@wgh.org;8;;
;todd.baker@laerdal.com;39;;
;todd.baker@rqi1stop.com;2;;
;tom.mawman@dignityhealth.org;1;;
;tomas.buxbaum@sll.se;64;;
;tony.hosmans@chu.ulg.ac.be;3;;
;tony.kim@rqipartners.com;22;;
;tonya.tittle@providence.org;1;;
;tonya.turner@adventhealth.com;1;;
;tracy.hernandez@adventhealth.com;1;;
;trosenberger@unitedregional.org;40;;
;tskrabel@ramchealth.org;12;;
;twolfe@kansasheart.com;1;;
;tyeisha.montgomery@tifs.org;1;;
;ulrika.karlgren@regionorebrolan.se;5;;
;ursula.dozier@unchealth.unc.edu;5;;
;vanessa.hodge@wvumedicine.org;1;;
;vchilders@wyomingmedicalcenter.org;2;;
;vgasimov@radford.edu;1;;
;vickie.schrenk@avera.org;7;;
;victoria.tovbina@rqipartners.com;20;;
;vkoceja@eisenhowerhealth.org;1;;
;wade.scoles@providence.org;3;;
;wanda.vaziri@unchealth.unc.edu;2;;
;wanders@yrmc.org;25;;
;watermanr@apdmh.org;1;;
;wedwards@vt.vcom.edu;3;;
;wendy.cox@calverthealthmed.org;1;;
;wendy.fadden@adventhealth.com;6;;
;wendy.lanham@caromonthealth.org;11;;
;wendy.murphy@eehealth.org;2;;
;wendy.stock@rqipartners.com;50;;
;wenyun.chang@providence.org;7;;
;william.eslick@ascension.org;2;;
;willrusty5@yahoo.com;2;;
;wilson.kathy@davishealthsystem.org;1;;
;wilsont@hghospital.org;2;;
;wlove6@uthsc.edu;1;;
;woanes@riverviewhealth.org;10;;
;yasmin.s.s@laerdal.com;14;;
;zachary.parker@ssmhealth.com;1;;
;aanderle@unitedregional.org;34;;
Grand Total;;7571;;
