Id; Name
http://laerdal.com/virtualclinicals/group/lads1/nursingprocess/01; Analysis
http://laerdal.com/virtualclinicals/group/lads1/nursingprocess/02; Assessment
http://laerdal.com/virtualclinicals/group/lads1/nursingprocess/03; Implementation
http://laerdal.com/virtualclinicals/group/lads1/nursingprocess/04; Evaluation
http://laerdal.com/virtualclinicals/group/lads1/nursingprocess/05; All
http://laerdal.com/virtualclinicals/group/lads1/nursingprocess/06; Planning