id; assignmentId; completed;  score; blobId
a1; s1;           2019-03-20; 0.50;  bj1
a2; s1;           2019-04-01; 0.85;  bj2
a3; s2;           2019-03-21; 0.75;  bj3
a4; s5;           2019-02-18; 0.90;  bj4